AESunoptimizedArea/AESunoptimizedArea.sim/sim_1/behav/xsim/simulate.log
Time resolution is 1 ps
reset:0 addra:  0 cmacReg:xxxxxxxxxxxxxxxxxxxxxxxxxxxxxxxx cIn:ffd8ffe000104a464946000101000001 cmacIn:ffd8ffe000104a464946000101000001
reset:0 addra:  1 cmacReg:xxxxxxxxxxxxxxxxxxxxxxxxxxxxxxxx cIn:ffd8ffe000104a464946000101000001 cmacIn:xxxxxxxxxxxxxxxxxxxxxxxxxxxxxxxx
reset:0 addra:  2 cmacReg:xxxxxxxxxxxxxxxxxxxxxxxxxxxxxxxx cIn:00010000ffdb00430008060607060508 cmacIn:xxxxxxxxxxxxxxxxxxxxxxxxxxxxxxxx
reset:0 addra:  3 cmacReg:xxxxxxxxxxxxxxxxxxxxxxxxxxxxxxxx cIn:0707070909080a0c140d0c0b0b0c1912 cmacIn:xxxxxxxxxxxxxxxxxxxxxxxxxxxxxxxx
reset:0 addra:  4 cmacReg:xxxxxxxxxxxxxxxxxxxxxxxxxxxxxxxx cIn:130f141d1a1f1e1d1a1c1c20242e2720 cmacIn:xxxxxxxxxxxxxxxxxxxxxxxxxxxxxxxx
reset:0 addra:  5 cmacReg:xxxxxxxxxxxxxxxxxxxxxxxxxxxxxxxx cIn:222c231c1c2837292c30313434341f27 cmacIn:xxxxxxxxxxxxxxxxxxxxxxxxxxxxxxxx
reset:0 addra:  6 cmacReg:xxxxxxxxxxxxxxxxxxxxxxxxxxxxxxxx cIn:393d38323c2e333432ffdb0043010909 cmacIn:xxxxxxxxxxxxxxxxxxxxxxxxxxxxxxxx
reset:0 addra:  7 cmacReg:xxxxxxxxxxxxxxxxxxxxxxxxxxxxxxxx cIn:090c0b0c180d0d1832211c2132323232 cmacIn:xxxxxxxxxxxxxxxxxxxxxxxxxxxxxxxx
reset:0 addra:  8 cmacReg:9958fdec8e2d65c80160cfc0e66432fa cIn:32323232323232323232323232323232 cmacIn:xxxxxxxxxxxxxxxxxxxxxxxxxxxxxxxx
reset:0 addra:  9 cmacReg:9958fdec8e2d65c80160cfc0e66432fa cIn:32323232323232323232323232323232 cmacIn:ab6acfdebc1f57fa3352fdf2d45600c8
reset:0 addra: 10 cmacReg:9958fdec8e2d65c80160cfc0e66432fa cIn:3232323232323232323232323232ffc0 cmacIn:ab6acfdebc1f57fa3352fdf2d45600c8
reset:0 addra: 11 cmacReg:9958fdec8e2d65c80160cfc0e66432fa cIn:00110800800080030122000211010311 cmacIn:ab6acfdebc1f57fa3352fdf2d456cd3a
reset:0 addra: 12 cmacReg:9958fdec8e2d65c80160cfc0e66432fa cIn:01ffc4001f0000010501010101010100 cmacIn:9949f5ec0e2de5cb0042cfc2f76531eb
reset:0 addra: 13 cmacReg:9958fdec8e2d65c80160cfc0e66432fa cIn:00000000000000010203040506070809 cmacIn:98a739ec912d65c90461cec1e76533fa
reset:0 addra: 14 cmacReg:9958fdec8e2d65c80160cfc0e66432fa cIn:0a0bffc400b510000201030302040305 cmacIn:9958fdec8e2d65c90363cbc5e0633af3
reset:0 addra: 15 cmacReg:9958fdec8e2d65c80160cfc0e66432fa cIn:0504040000017d010203000411051221 cmacIn:935302288e9875c80361ccc3e46031ff
reset:0 addra: 16 cmacReg:9958fdec8e2d65c80160cfc0e66432fa cIn:31410613516107227114328191a10823 cmacIn:9c5cf9ec8e2c18c90363cfc4f76120db
reset:0 addra: 17 cmacReg:9958fdec8e2d65c80160cfc0e66432fa cIn:42b1c11552d1f02433627282090a1617 cmacIn:a819fbffdf4c62ea7074fd4177c53ad9
reset:0 addra: 18 cmacReg:9958fdec8e2d65c80160cfc0e66432fa cIn:18191a25262728292a3435363738393a cmacIn:dbe93cf9dcfc95ec3202bd42ef6e24ed
reset:0 addra: 19 cmacReg:08e5a8423f5a8eab8a6ad2e108468822 cIn:434445464748494a535455565758595a cmacIn:8141e7c9a80a4de12b54faf6d15c0bc0
reset:0 addra: 20 cmacReg:08e5a8423f5a8eab8a6ad2e108468822 cIn:636465666768696a737475767778797a cmacIn:4ba1ed047812c7e1d93e87b75f1ed178
reset:0 addra: 21 cmacReg:86e7908ee6d9acc3fe5ec3671345991d cIn:838485868788898a9293949596979899 cmacIn:6b81cd245832e7c1f91ea7977f3ef158
reset:0 addra: 22 cmacReg:774af2673e1c3b6cae898a5fa29343d0 cIn:9aa2a3a4a5a6a7a8a9aab2b3b4b5b6b7 cmacIn:05631508615125496ccd57f285d20184
reset:0 addra: 23 cmacReg:7de20c0fc8aedcb650280a2dd0cfc004 cIn:b8b9bac2c3c4c5c6c7c8c9cad2d3d4d5 cmacIn:ede851c39bba9cc4072338ec1626f567
reset:0 addra: 24 cmacReg:f74cb7ec0273f9c1a45399fc8c0efc19 cIn:d6d7d8d9dae1e2e3e4e5e6e7e8e9eaf1 cmacIn:c55bb6cd0b6a197097e0c3e7021c14d1
reset:0 addra: 25 cmacReg:356c10dba2a0e6675d34a323dc4b92ac cIn:f2f3f4f5f6f7f8f9faffc4001f010003 cmacIn:219b6f35d8921b2240b67f1b64e716e8
reset:0 addra: 26 cmacReg:3dcea05beca03d56216e1624701a9604 cIn:01010101010101010100000000000001 cmacIn:c79fe42e54571e9ea7cb6723c34a92af
reset:0 addra: 27 cmacReg:25cb123f29f6dd83fe33bb04d80fb2b2 cIn:02030405060708090a0bffc400b51100 cmacIn:3ccfa15aeda13c57206e1624701a9605
reset:0 addra: 28 cmacReg:82288d4b5ff307755911c4539ccb228d cIn:02010204040304070504040001027700 cmacIn:27c8163a2ff1d58af43844c0d8baa3b2
reset:0 addra: 29 cmacReg:54286005cdc1f02898ad724a5347d222 cIn:01020311040521310612415107617113 cmacIn:80298f4f5bf003725c15c0539dc9558d
reset:0 addra: 30 cmacReg:9d388c5a4ac1943a00e3f8b953ca4b69 cIn:22328108144291a1b1c109233352f015 cmacIn:552a6314c9c4d1199ebf331b5426a331
reset:0 addra: 31 cmacReg:d470fd0cdec77dacaf2e5f9d89f26576 cIn:6272d10a162434e125f11718191a2627 cmacIn:bf0a0d525e83059bb122f19a6098bb7c
reset:0 addra: 32 cmacReg:9dbae4d97fb06671cf8b4f1f7eb3d673 cIn:28292a35363738393a43444546474849 cmacIn:b6022c06c8e3494d8adf488590e84351
reset:0 addra: 33 cmacReg:bdef7e9e1e1ad0f0a9d871e1ee349bcb cIn:4a535455565758595a63646566676869 cmacIn:b593ceec49875e48f5c80b5a38f49e3a
reset:0 addra: 34 cmacReg:6695accb23ac6df3fc0208589ebbf84c cIn:6a737475767778797a82838485868788 cmacIn:f7bc2acb484d88a9f3bb15848853f3a2
reset:0 addra: 35 cmacReg:9f0b084c60312e8f29518240f33f25e1 cIn:898a92939495969798999aa2a3a4a5a6 cmacIn:0ce6d8be55db158a86808bdc1b3d7fc4
reset:0 addra: 36 cmacReg:9969bc652822ab3d434f7dec18e9c3f8 cIn:a7a8a9aab2b3b4b5b6b7b8b9bac2c3c4 cmacIn:16819adff4a4b818b1c818e2509b8047
reset:0 addra: 37 cmacReg:497a24187a55928cd0994b1b094d7773 cIn:c5c6c7c8c9cad2d3d4d5d6d7d8d9dae2 cmacIn:3ec115cf9a911f88f5f8c555a22b003c
reset:0 addra: 38 cmacReg:9d0a08a58268c006a04df0e34488523a cIn:e3e4e5e6e7e8e9eaf2f3f4f5f6f7f8f9 cmacIn:8cbce3d0b39f405f044c9dccd194ad91
reset:0 addra: 39 cmacReg:102c8ea1119900986e071bb21866f011 cIn:faffda000c03010002110311003f00f7 cmacIn:7eeeed43658029ec52be0416b27faac3
reset:0 addra: 40 cmacReg:9b92ab43260a16d4f23c0fd5a3cfd0f1 cIn:093fd6b7d4d11ffac5fa8a575632310a cmacIn:ead354a11d9a01986c1618a31859f0e6
reset:0 addra: 41 cmacReg:f33cc085cde0e902147aac9c47dbf140 cIn:4827ae29515c3a92ac003dc5005c3d2a cmacIn:92ad7df4f2db092e37c68582f5fde1fb
reset:0 addra: 42 cmacReg:5866e8105c87fd7a44aeceda31b95d0e cIn:1b9ff543eb527989fde5fcea1b991042 cmacIn:bb1b6eac9cbcd390b87a91594787cc6a
reset:0 addra: 43 cmacReg:8e3565b2b47ae10ceb09a9804aa2e7dd cIn:5b7ae17924b700526ec0571d6acdb9c2 cmacIn:43f91d53b7d584f3b94b32302a204d4c
reset:0 addra: 44 cmacReg:29df256a478502b1a546bef83aeaba47 cIn:1f5cd73cfac4d7876691024b183cddcd cmacIn:d54f84cb90cde15e85c9fe9d206f5e1f
reset:0 addra: 45 cmacReg:edc8b1fad052560d4a9c9346d631946a cIn:f2c3ff000103993f0c2ffb59e299fd98 cmacIn:3683f256bd41d536c3d7bcb322d6678a
reset:0 addra: 46 cmacReg:8e1f59b47b6dd9d869b2a232d6086478 cIn:f72c1afef6e6e891cc6afe5443fe00a4 cmacIn:1f0b4efad151cf3246b3681f34a869f2
reset:0 addra: 47 cmacReg:d8945207dd5091b6d9741464286c00a0 cIn:647fbc5beb5cb531708e8b566d1a2def cmacIn:7933434a8d8b3149a5d85c6695f664dc
reset:0 addra: 48 cmacReg:a5c29b53355688de0a8c6ac270ee6b2d cIn:a1bb75ab69d64c16eefada063da59554 cmacIn:bcebee5c360c2487a9fa9f3245762d4f
reset:0 addra: 49 cmacReg:84eb384547d3423d099139c799711630 cIn:fea6b2e4f136886462353b72a4f50491 cmacIn:0479eef85c80c4c8e476b0c44d4bfe79
reset:0 addra: 50 cmacReg:2067015f9510b19bba0b6d65bba57d36 cIn:f981496fa75a5a67ecb696f06792628c cmacIn:7a4d8aa1b6e5ca596ba402b53d8412a1
reset:0 addra: 51 cmacReg:5952759a6158410d97b5f49b6d729576 cIn:2e7f215332bff78e3e95cb2c7cba2348 cmacIn:d9e64830324aebfc56bdfb95dc371fba
reset:0 addra: 52 cmacReg:b74f1b5cb1308efd7215b3736107fccc cIn:d08f562db6b1a65d48ab6fa8da4ae718 cmacIn:772d54c953e7b683a9203fb711c8b63e
reset:0 addra: 53 cmacReg:ce9c83fdb367b3aa69c6acef29068065 cIn:5599777e55b40e79e2b9ab9b382e936d cmacIn:67c04d71078128a03abedcdbbb4d1bd4
reset:0 addra: 54 cmacReg:c3b115006a32bfe64b6129842b39ad14 cIn:cc314c9fdd95030fd45535d305a9cd84 cmacIn:9b05f483e6d3bdd38b7f077411281308
reset:0 addra: 55 cmacReg:d21edb85e6b29831da6aa18174b64145 cIn:f73624745864253fef86cafe9f9511cc cmacIn:0f80599fb7a7bce99f341c572e906090
reset:0 addra: 56 cmacReg:5d011483b0974dd6fbbb134e6fc45d44 cIn:b5f790de193f859d6dc7fa93556b1575 cmacIn:2528fff1bed6bd0e35ec6b7feb235089
reset:0 addra: 57 cmacReg:053719bc47065a7b83fc3728d6dcf7de cIn:cbcb442ba9c1e6c3ff003f16a8c4a8f5 cmacIn:e8f6845da9a8c84b967ce9dd3aaf4831
reset:0 addra: 58 cmacReg:4cde944711a49670afef77a0a15e37b8 cIn:78fa81eea587d2b620952ea159ade412 cmacIn:cefc5d97eec7bcb87cfc083e7e185f2b
reset:0 addra: 59 cmacReg:ffdd74d23b378bedb5f54c61cc3f351f cIn:c4e32ae841047e15df46bc2aabc59cf2 cmacIn:342415a9b42344c68f7a5901f8f3d3aa
reset:0 addra: 60 cmacReg:72da0db4b5d7e70215505aa0ab7381b5 cIn:a7286e5bb5e8d562ab407606dff2fd6a cmacIn:3b3e5e3a7a33f5f86ab3f04b67faa9ed
reset:0 addra: 61 cmacReg:491a5e2088a886ba2bbb2c19c7cfa770 cIn:6f313fbcbf9d6c41567ff5e7fcf6a8ea cmacIn:d5f263ef003f3260be102ca674817cdf
reset:0 addra: 62 cmacReg:c8250f2617320be6551c0b02390c8aab cIn:594334a5954b03df14df2dff00badf95 cmacIn:262b619c3735eafb7dc4d9fe3b390f9a
reset:0 addra: 63 cmacReg:a3ec0e4a31cdaaeb05b0c4df44e82335 cIn:005b8ffd5afd05127fab6fa1a62ca8aa cmacIn:91663b838279083941c326fd39b6553e
reset:0 addra: 64 cmacReg:86fa3a8f9dd721cb597b4a5f3b497a2b cIn:158e08183c523cc8518061920f5a4f40 cmacIn:a3b781b76b30aff97a1bab7ee2c48b9f
reset:0 addra: 65 cmacReg:2e1c1045f0bdd0bc6c25e76929827243 cIn:285cdd43676f25c5c481228c65d9813f cmacIn:93743297a1851d0308fb2bcd3413356b
reset:0 addra: 66 cmacReg:ca0564849fa3962b53fc52d44e449bfd cIn:962b1fecf3eb0de6dfa18ed7398ac49f cmacIn:0640cd0697d2f579a8a4c5e54c5bf37c
reset:0 addra: 67 cmacReg:f81197ac1a59b344c1d1ef3c25a5bc0a cIn:c434b8eaddc2f41d4e48e08d8eaf76b7 cmacIn:5c2e7b686c489bcd8c5ddc0377ce5f62
reset:0 addra: 68 cmacReg:f232198a366dd2db8f4e3ef93dd0a220 cIn:cea7ec70b1fb1a11f78ffcf53f5e8bed cmacIn:3c252f46c79b47598f990fb1ab0acabd
reset:0 addra: 69 cmacReg:9a46ce3f426effa47f7f65986487ac4f cIn:cf52316350d46db49b26b9b962103055 cmacIn:3c95f5fa8796c8ca78c1c20c028e29cd
reset:0 addra: 70 cmacReg:8fdd4cad6c72de13814d43829b8e7dff cIn:551b99d8f4551dcd79988c439be48ec7 cmacIn:5514ff5c12ba9210e459dc2106979c1a
reset:0 addra: 71 cmacReg:781bce51628f65b15f656a0f588ba185 cIn:5c21657ea5d4438038e98e2a411d72db cmacIn:dac6d5759827c3def8d5cfc1006af338
reset:0 addra: 72 cmacReg:c7acb7cdfb4635a1d19d9cb8a704f6c3 cIn:fc4da8e2413dbe9109e56331f9d363b6 cmacIn:243aab2fc75b2631678ce4251996d35e
reset:0 addra: 73 cmacReg:cf7b6b62fa68ccdbf538bc4f1fa6d327 cIn:f27807d874a9639bc49a6664925b7d62 cmacIn:3be11f2fba7b8b30d878ff895ed79575
reset:0 addra: 74 cmacReg:9acbe77d9d0ef2000d4e98ed1a0f4659 cIn:01cb2451f933e3fd9e76b63d3bd44684 cmacIn:3d036cba8ec1af4031a2da2b8dfdae45
reset:0 addra: 75 cmacReg:673c04d3980059b877262b1338469be6 cIn:ad768a6fcd5ce9365359314585edb6a7 cmacIn:9b00c32c643d11fd93382ed021db00dd
reset:0 addra: 76 cmacReg:d7f9ad44916c0338c4f29230d69a097a cIn:669736b27991b64648c1523aa9079047 cmacIn:ca4a8ebc555cb08e247f1a56bdab2d41
reset:0 addra: 77 cmacReg:1a2ced3476a9536bff5291a41b44a895 cIn:a1e6a664a52a44a96a5429cd022cd175 cmacIn:b16e9bf6e8fdb57e8c33c00a7f9d993d
reset:0 addra: 78 cmacReg:86ac01b40c2f32b716a8acbc86e888b9 cIn:3436b0bcd3cab1451a96776380aa3b93 cmacIn:bbca4b50d38317c29506b869196879e0
reset:0 addra: 79 cmacReg:22699d8561e727c2df2a7a668822233d cIn:dab9c5d475dd640934c8e1d36c8fdc9e cmacIn:b29ab108dfe583f20c3edbdf0642b32a
reset:0 addra: 80 cmacReg:267be3d8607df93bb9115a20a9b29a8a cIn:e90b4ae3fbc13a28f4cd631a3cced634 cmacIn:f8d05851143a43cbebe29bb5e4adffa3
reset:0 addra: 81 cmacReg:8a52ef7f028885ca96601574fd2b0242 cIn:e6d0e824b73e98acc682e34eb9377a69 cmacIn:cf70a93b9bbcc3134ddc393a957c4cbe
reset:0 addra: 82 cmacReg:e3f74f7b154d60f14cdd601f05521f3b cIn:0b231ccb6e4ed8e5fc3f85bfda1f8d56 cmacIn:6c82075bb5b61d6650e2f63a441c782b
reset:0 addra: 83 cmacReg:307865c5c6da4816b7768bf468095478 cIn:58bc4f6c77a6a769a88ea619e11093ec cmacIn:e8d453b07b03b814b0e2e5a0df4d926d
reset:0 addra: 84 cmacReg:e158c4e34ec795dce7b05cc2c5b195a5 cIn:197bfd78abd65a847a9412811c905cc2 cmacIn:68c42aa9b17cef7f1ff82ded8919c794
reset:0 addra: 85 cmacReg:bc87c61fb9e8823115109191e827a557 cIn:db67b797878cf6ce3a83d88eb4aa519d cmacIn:f823399be511cf589d244e43d921c967
reset:0 addra: 86 cmacReg:244b205c6cfce2301f06d0ade8dd4896 cIn:27cd0d195192968ddcd6b5d4e0d52d96 cmacIn:67e071883e6474ff2f93491f5c8df4ca
reset:0 addra: 87 cmacReg:25d8cf010f0a1fb9c5166af8ea7cb0dc cIn:68030da4a491c836b46e31f2b0f5fd0f cmacIn:03862d453d6e74bdc3d0657908086500
reset:0 addra: 88 cmacReg:c0ef071876b5eb68df2d2898f00c3711 cIn:51907353572f72d2e9f77fda16a9ba45 cmacIn:4ddbc2a5ab9bd78f71785b0a5a894dd3
reset:0 addra: 89 cmacReg:57cfa52e6a91a0dd016ae36e715536dd cIn:5db3c40ffae8c76ff787254fe1deba7b cmacIn:917f744b219a99ba36da5742e6a58d54
reset:0 addra: 90 cmacReg:8d96c8d068b86e0502848a939d8d179b cIn:5912f6d62b9b66592195432306ea0d7a cmacIn:0a7c6121907967b2f6edc621908b8ca6
reset:0 addra: 91 cmacReg:eaf32332500b4eb238833ec9b3a73b9e cIn:582c5ac447cd1cb5a8fb3775b1761ff5 cmacIn:d4843e064323085c2311c9b09b671ae1
reset:0 addra: 92 cmacReg:cda031abfd57c1b5878fa8134201f6fb cIn:2bfe7bd4b50248b1a0473823ad3bcf8f cmacIn:b2df79f617c65207907809bc02d1246b
reset:0 addra: 93 cmacReg:f8908e851152e9933f777e8c5b743557 cIn:fbd5da60557ff58df5358badb9ba6834 cmacIn:e65e4a7f4855890427c89030ef3a3974
reset:0 addra: 94 cmacReg:a7903e2be9895901026190f2be34234d cIn:98ce05c82d391d4423a8ff00811f947b cmacIn:034554e5442d1c1eca42f521e2ce5d63
reset:0 addra: 95 cmacReg:cfe3d8711f8d59f212086e067008163e cIn:6eade6859f2c08c1e6b99b273737b7b7 cmacIn:3f5e3be3c4b0444521c96ff23f2bb736
reset:0 addra: 96 cmacReg:9d13f84665e19302a1edd9319f7919dd cIn:cc722597cb8ffeb9a7ca3f3393f8d71e cmacIn:a14e3ef480a15133f4b1f521473fa189
reset:0 addra: 97 cmacReg:f97f797cce2b3e3a621b93f51eeb1ba5 cIn:36afb3a765bb36a10e695fb1a518da00 cmacIn:5161ddd1ae6e6dbb0627e6020c81cec3
reset:0 addra: 98 cmacReg:2cc31930d97242fd7905879ccb67b8e8 cIn:03007419edd056469d6ffdb9ae4da8ca cmacIn:cfd0cadbab90089b6c72cc44bbf3c1a5
reset:0 addra: 99 cmacReg:8c64353aae43cfd707ae9960d4e8dd3e cIn:14db59bb5bd98ea370fbeff52781ec2b cmacIn:2fc36d2934a214bbe46a7a25652a1022
reset:0 addra:100 cmacReg:c9d990309dd0e1e3c5f3c6484627d5cc cIn:4ee2530da4f32fde8e3661f5009152f8 cmacIn:98bf6c81f59a417477557695f3693115
reset:0 addra:101 cmacReg:9a16b9831fc5a9bb0cc35505e98a4bd5 cIn:66d05a685611756102b31f566f989fcc cmacIn:873bc33d3923ce3d4bc5a7bd46b68734
reset:0 addra:102 cmacReg:8a82f19aee599d33fc195f40ecea37be cIn:d7260a0a52bb36ad2e546b436e918e17 cmacIn:fcc6e3eb49d4dcda0e704a538612d419
reset:0 addra:103 cmacReg:d340ffdd8ccc3ca8c72eb12c9c1b4344 cIn:693c9ee4fd4d13db4720e5467d475af1 cmacIn:5da4fb90bce2ab9ed24d3403827bb9a9
reset:0 addra:104 cmacReg:81fad0d13c934e0be4074575d1034811 cIn:af116adadf8ffc537fa1e917b7365a4e cmacIn:ba7c613971812f73800e546ae15c19b5
reset:0 addra:105 cmacReg:29486c403824fb7c1de272ac0d2d9308 cIn:9f335b38b572925c48a30e588fe10780 cmacIn:2eebba0be31cb2589ba6ac626635125f
reset:0 addra:106 cmacReg:97318aa53894c0ef73635efc4aacf44f cIn:3a1c67a918f331ad7897e17f89d56cf5 cmacIn:b67b37788d56692055417cf482cc9488
reset:0 addra:107 cmacReg:43c79062dff2f0c4d01db2a5277649cb cIn:1b8921ddfbc8257dd1cbcf20ae719f7e cmacIn:ad2ded0c2067f1420bf4bf83c37998ba
reset:0 addra:108 cmacReg:10d337b7cac60d1118b4f73b50464c9e cIn:a335eb9c763e8f30b693e2149867ecd7 cmacIn:584eb1bf243ad5b901d67d858907d6b5
reset:0 addra:109 cmacReg:eb40cbede51eee8a4cf8148f5ff85338 cIn:ee22b80071e6ff00049ec4fdd3ebc1ad cmacIn:b3e6dc2bbcf88221ae27152fc821a049
reset:0 addra:110 cmacReg:e507385250c1aa4cce02fe3cb64297b7 cIn:d232bdb3d4d61c97f6de23f0843ab5aa cmacIn:056273ed94f8118a4866d0728c139295
reset:0 addra:111 cmacReg:d98a56c364cbcfde918d96bdd3db0777 cIn:9f2ae2dd6e63071953c36d38e320820e cmacIn:373585e18417b6db38dcddcc3278221d
reset:0 addra:112 cmacReg:f3f62b7ba3067d4d48da324b448f9419 cIn:0f515b61d648b78e8e030fa119ae4ab1 cmacIn:46a0b41e0aa8c8c7c24efb8530fb8579
reset:0 addra:113 cmacReg:e4334380e0596863863d274a42a6e836 cIn:b3364ef66731a8c5fdb5e228f4d3f359 cmacIn:fca7701a754ecac3c6d93dea5d21dea8
reset:0 addra:114 cmacReg:4b1b2fa6bc9c258d000eb11db11d78e2 cIn:d8859ee579c4921ff5687d401f311f4a cmacIn:57050d768768c0a67b88c562b6751b6f
reset:0 addra:115 cmacReg:6b661044e85aa14a8f1ed32ab836b43f cIn:eaaded6351b8a82dea6b0bc3b1997fb4 cmacIn:939eb143c558b792f566cc5dae2c67a8
reset:0 addra:116 cmacReg:16f27ed7a3e03e89d8a212227ebecaa7 cIn:6ec8fde5c5fcdf37a843e58fd16bcc75 cmacIn:81cbfd27b9e209676575d8e909afcb8b
reset:0 addra:117 cmacReg:d9d34234531c081a1c9b97f1addb9b11 cIn:8d4bc4bf12752bf8b46d42ef4fd22ce4 cmacIn:783a8332661ce1be70e1f7adafd506d2
reset:0 addra:118 cmacReg:97741721207693d83a83c39509dd0b67 cIn:68638eda428d36d2433c8c392091c2f4 cmacIn:5498868b416923e2a8f6d51ee209b7f5
reset:0 addra:119 cmacReg:8f685492f80fe2eb9640d1d018b3ef08 cIn:e3f1abc3c14637ee2a8eeec7b83c0920 cmacIn:ff1799fb62fba50a79bf4fac294cc993
reset:0 addra:120 cmacReg:3b958bffc72a3a4689545942f821745e cIn:2194303d88ae675fb26b1922d5a00cd2 cmacIn:6c99ff513949d505bcce3f17a08fe628
reset:0 addra:121 cmacReg:947701be09de05102443369b8e440d45 cIn:db022450326483ab27b91f797d30477a cmacIn:1a01bbc24f845d193b3f40602d81788c
reset:0 addra:122 cmacReg:3410d172400f519b4fd43d26ac6afc91 cIn:f9e34bf19789fe1af89d6de4d42e6ef4 cmacIn:4f7525ee3bba86bb03fa29e2f3744a3f
reset:0 addra:123 cmacReg:44508af3bf76bda9a72484e1c3ab6578 cIn:f53fbcb59a42e8c84f3807eeb7b8c7bf cmacIn:cdf39a83d786af81b74950c278449265
reset:0 addra:124 cmacReg:9320bccd9df7d4d2be7ea4739bf592a5 cIn:15f51437106a9a6437511dd05c46b229 cmacIn:b16f364625345561e81c830f7413a2c7
reset:0 addra:125 cmacReg:949a7365fd64f7f9ef87c9b4d7099306 cIn:38e558023a7d6b4ab0538b4c883e5660 cmacIn:86d5a8fa8d9d4eb6892fb9a3c7b3208c
reset:0 addra:126 cmacReg:e9cece7c42da9a98b84344cc6586a799 cIn:5c329f990823aab2f7fa7b52786ef7ec cmacIn:ac7f2b67c7199cb35fd442f85f37c566
reset:0 addra:127 cmacReg:9cf47b54f5dc28c7b9df46141ce2bbd4 cIn:7aa4ba6b9fdcdc66683d1587df4fc721 cmacIn:b5fc51e54af9302a4fb93f9e1de85075
reset:0 addra:128 cmacReg:b26818137d9c27bcfafc5ecc1545cc3e cIn:87d48ed54ed7e4b08e138fdcee87fef8 cmacIn:e650c13f6a00f4a1d1e25393c3ad7cf5
reset:0 addra:129 cmacReg:c47d04f4da7c88cd59ced538d516f648 cIn:62a3f45aa779235becba8c1df6b209d7 cmacIn:35bc96c6334bc30c74efd110fbc232c6
reset:0 addra:130 cmacReg:fbdcf371c79cc1a05b47f94e0debccb1 cIn:1d4edce47e2bb87e35f2742bba189bae cmacIn:a6def0ae7d05ab96b574592523a4ff9f
reset:0 addra:131 cmacReg:734089505f9fca3a04cb0717afea21eb cIn:f63d995255295ba9de4dfeb8ff009ed5 cmacIn:e6922f95b9b779de6eb58d65b7f3571f
reset:0 addra:132 cmacReg:7e6d9dae554bb419361b196e7ebd229c cIn:1d48805dc6b3c6eac8ea0a91dc76a77d cmacIn:857d10020ab69193da86f9af50eabf3e
reset:0 addra:133 cmacReg:849e89362e110d4bcaa6b1e87686196d cIn:99fd56bebd3b9e26ab4645a95c9b4d1a cmacIn:63251df393f872f3fef113ffa2cb85e1
reset:0 addra:134 cmacReg:0e8e28b3222059e4677bf2ef8bedffb1 cIn:e2e036d31c0cc0fbe38fd6b074f8bc8b cmacIn:1d63df88932a936d61e0f4412a1d5477
reset:0 addra:135 cmacReg:e36a97d9932294bc604c26d2fe04c329 cIn:0b784e4148d41cfae393f99abde27907 cmacIn:ec6e1e603e2c991f84f4245fff15433a
reset:0 addra:136 cmacReg:9d76cafb6e281a10e774605af295da03 cIn:fc23d7516dfbc163ce7d580aaeac3cc6 cmacIn:e812d998dbf6884683dfdf4843e6ba2e
reset:0 addra:137 cmacReg:caf02e9f66a7b5bf2dc2b709ea30b9b8 cIn:f4ce2bc5cce7efc51db855eeb62de219 cmacIn:61551daa03d3db73290938505c39e6c5
reset:0 addra:138 cmacReg:c188fc53576b8bb363b40fb31d41d4c2 cIn:6c2e635eaf0ba8fa95357bc3f2acda2d cmacIn:3e3e055aaa405a7a307ae2e75c1d5ba1
reset:0 addra:139 cmacReg:6f0dfc55a33857ff68106389abc34cbe cIn:8383f7ada31fa63f9d564620e4751eb5 cmacIn:ada69f0df8602349f6817470efed0eef
reset:0 addra:140 cmacReg:a9ebfa52a3f15c311b7ca0746bd94fc8 cIn:1680c2ca5b8d349e21632c19ef0b1c81 cmacIn:ec8e0bf80027f1c0f54625a94fb6520b
reset:0 addra:141 cmacReg:50e74475dfacb5b7b1096f05f12da2f8 cIn:ff00016c8fcaaf2fa894acfa8abc743c cmacIn:bf6b3898f87c68af3a1f8c6d84d25349
reset:0 addra:142 cmacReg:e0ac00fe632a86e0248606768d7c9f18 cIn:035ed5f56f86bf1175a80c4cb15d5d49 cmacIn:afe7451950661a98199dc3ff7b91d6c4
reset:0 addra:143 cmacReg:39c33b2624f9dc6d771a018c7c4937cd cIn:770b8fe24909208cf5c74f62a6b83d5f cmacIn:e3f2d50b0cac39f1512e0a3a3c21c251
reset:0 addra:144 cmacReg:75bf87832057311e4707ea74f1408311 cIn:56bef146b02568e4927958224680bb33 cmacIn:4ec8b4c46df0fce182dd4eeedaf10a92
reset:0 addra:145 cmacReg:2ae0f2efb72135c37eaadca40a37504f cIn:13c003b927b57d8baff85f43f16592db cmacIn:230176c5907259fad57eb256b7c03822
reset:0 addra:146 cmacReg:8e61990a87e20d98a4f1bebb7ab251ac cIn:6b7a743771a9ca1625594ffb2ea430fc cmacIn:3920f15690944848d15283e7fb52c294
reset:0 addra:147 cmacReg:289c3598af22b70d13c1f1bf5f3f5e4a cIn:0d66681f0d7c25e17be17fa5e8f1c776 cmacIn:e51bed3df64bc78e81a8f14054166150
reset:0 addra:148 cmacReg:60ebaadc01f5d3c5d7428347f47238a5 cIn:b9d93492348cb9e3e5dc4853db239e6b cmacIn:25fa5d87a25e92ec68208e1ab7ce993c
reset:0 addra:149 cmacReg:0c2ecaf0695370d02dd9e8316e53bd46 cIn:d838ee1e17d164f0f7c3dd3747b8e67b cmacIn:d9329e4e35796a26329ecb142f51a6ce
reset:0 addra:150 cmacReg:d6ccc2e6772c2bf482d36308da530776 cIn:7b4092a9c70ed92cb9ef82c4647a5741 cmacIn:d41624ee7e821420da1a350629eb5b3d
reset:0 addra:151 cmacReg:71a67167893f41acc23ada789089a8fc cIn:c468a9fdd0063e9814c99fcc91554f1d cmacIn:ad8c504fb022f2d83b3ce1ccbe295037
reset:0 addra:152 cmacReg:eaee2c33269193a1f8cf43679252284c cIn:49f51ebfe7d29acf9c8eb9ae1c4d4b4a cmacIn:b5ced89a59397f34d6f345b401dce7e1
reset:0 addra:153 cmacReg:c6c8136ebb8f6d2225c0d476fa6dd1d0 cIn:c6d4e266f87d0b5adf5a3920c77b728d cmacIn:a31b328cc143096e6441fac98e1f6306
reset:0 addra:154 cmacReg:1035bfee2f00be1ffef7275dae92e9da cIn:8ec1db78fd1c57ce76fe2ad5fe1c6b9a cmacIn:001cf10843f26678fa9aed563d16a35d
reset:0 addra:155 cmacReg:98c2c83fc87f5f9f6dfefa8dbe52d16e cIn:968d3c522c90cccaa78ced27af3d7230 cmacIn:9ef46496d21ce9d188090d88508e8240
reset:0 addra:156 cmacReg:92a4d6edef67d278caa5530a9e0e20bb cIn:73ef5f4642ff0063d7242dc437c011cf cmacIn:0e4ff46de4ef9355ca7217aa116fa35e
reset:0 addra:157 cmacReg:9119357f67a5038fb28b4de471069bcb cIn:499411f9b2fe7b715178a3c09e1cf1a4 cmacIn:e14b89abad98d21b1d817ecea9ce3174
reset:0 addra:158 cmacReg:29e6d536217c0fcb92298732dce35cbe cIn:719d5ec835c46b88ee616d92a8f4cf71 cmacIn:d88d2486d55b78fee3f3ee24ef1a6a6f
reset:0 addra:159 cmacReg:ba9b96c0611134435ccfe822febc0140 cIn:ecd915be1e6a7044d45667c8faa6a177 cmacIn:587b8bfe14b864437c48eaa0741793cf
