AES/AES.sim/sim_1/behav/xsim/simulate.log
Time resolution is 1 ps
counter: x sOut:xxxxxxxxxxxxxxxxxxxxxxxxxxxxxxxx rOut:xxxxxxxxxxxxxxxxxxxxxxxxxxxxxxxx mixColOut:xxxxxxxxxxxxxxxxxxxxxxxxxxxxxxxx addrkOut:xxxxxxxxxxxxxxxxxxxxxxxxxxxxxxxx
counter: 0 sOut:xxxxxxxxxxxxxxxxxxxxxxxxxxxxxxxx rOut:xxxxxxxxxxxxxxxxxxxxxxxxxxxxxxxx mixColOut:xxxxxxxxxxxxxxxxxxxxxxxxxxxxxxxx addrkOut:xxxxxxxxxxxxxxxxxxxxxxxxxxxxxxxx
counter: 1 sOut:xxxxxxxxxxxxxxxxxxxxxxxxxxxxxxxx rOut:xxxxxxxxxxxxxxxxxxxxxxxxxxxxxxxx mixColOut:xxxxxxxxxxxxxxxxxxxxxxxxxxxxxxxx addrkOut:ffd9fde304154c41414f0a0a0d0d0e0e
counter: 2 sOut:16355411f259298383846767d7d7abab rOut:xxxxxxxxxxxxxxxxxxxxxxxxxxxxxxxx mixColOut:xxxxxxxxxxxxxxxxxxxxxxxxxxxxxxxx addrkOut:ffd9fde304154c41414f0a0a0d0d0e0e
counter: 3 sOut:16355411f259298383846767d7d7abab rOut:165967abf284ab1183d75483d7352967 mixColOut:xxxxxxxxxxxxxxxxxxxxxxxxxxxxxxxx addrkOut:ffd9fde304154c41414f0a0a0d0d0e0e
counter: 4 sOut:16355411f259298383846767d7d7abab rOut:165967abf284ab1183d75483d7352967 mixColOut:0ba66749d2160800a8496200a4a119b0 addrkOut:29728b1dd2bf38bc93e078f0d7ab76ff
counter: 5 sOut:16355411f259298383846767d7d7abab rOut:165967abf284ab1183d75483d7352967 mixColOut:0ba66749d2160800a8496200a4a119b0 addrkOut:dd0c13b400b97afa72ef1af1720a6f4e
counter: 6 sOut:c1fe7d8d6356da2d40dfa2a14067a82f rOut:165967abf284ab1183d75483d7352967 mixColOut:0ba66749d2160800a8496200a4a119b0 addrkOut:dd0c13b400b97afa72ef1af1720a6f4e
counter: 7 sOut:c1fe7d8d6356da2d40dfa2a14067a82f rOut:c156a22f63dfa88d40677d2d40fedaa1 mixColOut:0ba66749d2160800a8496200a4a119b0 addrkOut:dd0c13b400b97afa72ef1af1720a6f4e
counter: 8 sOut:c1fe7d8d6356da2d40dfa2a14067a82f rOut:c156a22f63dfa88d40677d2d40fedaa1 mixColOut:eebfb9f299a87bd37924aa80e273e9bd addrkOut:bd34a842b62bb5f116d2a700cc91aa4e
counter: 9 sOut:c1fe7d8d6356da2d40dfa2a14067a82f rOut:c156a22f63dfa88d40677d2d40fedaa1 mixColOut:eebfb9f299a87bd37924aa80e273e9bd addrkOut:582d76f9fd95c622c7bf6f808a435a43
counter:10 sOut:6ad83899542ab493c608a8cd7e1abe1a rOut:c156a22f63dfa88d40677d2d40fedaa1 mixColOut:eebfb9f299a87bd37924aa80e273e9bd addrkOut:582d76f9fd95c622c7bf6f808a435a43
counter:11 sOut:6ad83899542ab493c608a8cd7e1abe1a rOut:6a2aa81a5408be99c61a38937ed8b4cd mixColOut:eebfb9f299a87bd37924aa80e273e9bd addrkOut:582d76f9fd95c622c7bf6f808a435a43
counter:12 sOut:6ad83899542ab493c608a8cd7e1abe1a rOut:6a2aa81a5408be99c61a38937ed8b4cd mixColOut:18c7250897048b631229024ef6df996f addrkOut:5840cdbc4b6ab26c157da63fe61a56fc
counter:13 sOut:6ad83899542ab493c608a8cd7e1abe1a rOut:6a2aa81a5408be99c61a38937ed8b4cd mixColOut:18c7250897048b631229024ef6df996f addrkOut:ae38514645c642dc7e700ef1f2b6262e
counter:14 sOut:e407d15a6eb42c86f351aba1894ef731 rOut:6a2aa81a5408be99c61a38937ed8b4cd mixColOut:18c7250897048b631229024ef6df996f addrkOut:ae38514645c642dc7e700ef1f2b6262e
counter:15 sOut:e407d15a6eb42c86f351aba1894ef731 rOut:e4b4ab316e51f75af34ed18689072ca1 mixColOut:18c7250897048b631229024ef6df996f addrkOut:ae38514645c642dc7e700ef1f2b6262e
counter:16 sOut:e407d15a6eb42c86f351aba1894ef731 rOut:e4b4ab316e51f75af34ed18689072ca1 mixColOut:8e404e4a829424a0788195868d522ef2 addrkOut:5f30d2b40231b560eb4530f20bda1492
counter:17 sOut:e407d15a6eb42c86f351aba1894ef731 rOut:e4b4ab316e51f75af34ed18689072ca1 mixColOut:8e404e4a829424a0788195868d522ef2 addrkOut:c9b7b9f617a11aa381eda73a7057a30f
counter:18 sOut:dda95642f032a20a0c555c80515b0a76 rOut:e4b4ab316e51f75af34ed18689072ca1 mixColOut:8e404e4a829424a0788195868d522ef2 addrkOut:c9b7b9f617a11aa381eda73a7057a30f
counter:19 sOut:dda95642f032a20a0c555c80515b0a76 rOut:dd325c76f0550a420c5b560a51a9a280 mixColOut:8e404e4a829424a0788195868d522ef2 addrkOut:c9b7b9f617a11aa381eda73a7057a30f
counter:20 sOut:dda95642f032a20a0c555c80515b0a76 rOut:dd325c76f0550a420c5b560a51a9a280 mixColOut:dd2bcdfe4c0677d0a94ae50d60653ce3 addrkOut:b2eaeda22b0bb94b28723ad120a40c58
counter:21 sOut:dda95642f032a20a0c555c80515b0a76 rOut:dd325c76f0550a420c5b560a51a9a280 mixColOut:dd2bcdfe4c0677d0a94ae50d60653ce3 addrkOut:e1816e16e599ea3bf9b94a5acd931e49
counter:22 sOut:f80c9f47d9ee87e29956d6bebddc723b rOut:dd325c76f0550a420c5b560a51a9a280 mixColOut:dd2bcdfe4c0677d0a94ae50d60653ce3 addrkOut:e1816e16e599ea3bf9b94a5acd931e49
counter:23 sOut:f80c9f47d9ee87e29956d6bebddc723b rOut:f8eed63bd956724799dc9fe2bd0c87be mixColOut:dd2bcdfe4c0677d0a94ae50d60653ce3 addrkOut:e1816e16e599ea3bf9b94a5acd931e49
counter:24 sOut:f80c9f47d9ee87e29956d6bebddc723b rOut:f8eed63bd956724799dc9fe2bd0c87be mixColOut:2f65ec5d66a4a2da2b625d2c4c897d30 addrkOut:8312c283bba0e5460e1fd8cc6ac62388
counter:25 sOut:f80c9f47d9ee87e29956d6bebddc723b rOut:f8eed63bd956724799dc9fe2bd0c87be mixColOut:2f65ec5d66a4a2da2b625d2c4c897d30 addrkOut:715ce3209102304c8c3760ed462a625b
counter:26 sOut:a34a11b781770429649ad0555ae5aa39 rOut:f8eed63bd956724799dc9fe2bd0c87be mixColOut:2f65ec5d66a4a2da2b625d2c4c897d30 addrkOut:715ce3209102304c8c3760ed462a625b
counter:27 sOut:a34a11b781770429649ad0555ae5aa39 rOut:a377d039819aaab764e511295a4a0455 mixColOut:2f65ec5d66a4a2da2b625d2c4c897d30 addrkOut:715ce3209102304c8c3760ed462a625b
counter:28 sOut:a34a11b781770429649ad0555ae5aa39 rOut:a377d039819aaab764e511295a4a0455 mixColOut:2d1f242bb1fc96ddc4afd80a3b97e70a addrkOut:3b9c9c4785fb40566f6882610220bd16
counter:29 sOut:a34a11b781770429649ad0555ae5aa39 rOut:a377d039819aaab764e511295a4a0455 mixColOut:2d1f242bb1fc96ddc4afd80a3b97e70a addrkOut:39e6543152a3745180a50747753e272c
counter:30 sOut:128e20c7000a92d1cd06c5a09db2cc71 rOut:a377d039819aaab764e511295a4a0455 mixColOut:2d1f242bb1fc96ddc4afd80a3b97e70a addrkOut:39e6543152a3745180a50747753e272c
counter:31 sOut:128e20c7000a92d1cd06c5a09db2cc71 rOut:120ac5710006ccc7cdb220d19d8e92a0 mixColOut:2d1f242bb1fc96ddc4afd80a3b97e70a addrkOut:39e6543152a3745180a50747753e272c
counter:32 sOut:128e20c7000a92d1cd06c5a09db2cc71 rOut:120ac5710006ccc7cdb220d19d8e92a0 mixColOut:8e231a1b0184d75fbd0357679a97d7fb addrkOut:6a5ca31e15e0f36424b962fe95289dd8
counter:33 sOut:128e20c7000a92d1cd06c5a09db2cc71 rOut:120ac5710006ccc7cdb220d19d8e92a0 mixColOut:8e231a1b0184d75fbd0357679a97d7fb addrkOut:c9609d2ea598b2e65d15ed933428ad29
counter:34 sOut:ddd05e310646378e4c5955dc183495a5 rOut:120ac5710006ccc7cdb220d19d8e92a0 mixColOut:8e231a1b0184d75fbd0357679a97d7fb addrkOut:c9609d2ea598b2e65d15ed933428ad29
counter:35 sOut:ddd05e310646378e4c5955dc183495a5 rOut:dd4655a5065995314c345e8e18d037dc mixColOut:8e231a1b0184d75fbd0357679a97d7fb addrkOut:c9609d2ea598b2e65d15ed933428ad29
counter:36 sOut:ddd05e310646378e4c5955dc183495a5 rOut:dd4655a5065995314c345e8e18d037dc mixColOut:9b0bc53e43213da414484db9b026d96c addrkOut:daba28caf1018037ad90bafb24bb40b5
counter:37 sOut:ddd05e310646378e4c5955dc183495a5 rOut:dd4655a5065995314c345e8e18d037dc mixColOut:9b0bc53e43213da414484db9b026d96c addrkOut:cf92f7efb3a46acc04dba0250e0a4e22
counter:38 sOut:8a4f68df6d49024bf2b9e03fab672f93 rOut:dd4655a5065995314c345e8e18d037dc mixColOut:9b0bc53e43213da414484db9b026d96c addrkOut:cf92f7efb3a46acc04dba0250e0a4e22
counter:39 sOut:8a4f68df6d49024bf2b9e03fab672f93 rOut:8a49e0936db92fdff267684bab4f023f mixColOut:9b0bc53e43213da414484db9b026d96c addrkOut:cf92f7efb3a46acc04dba0250e0a4e22
counter:40 sOut:8a4f68df6d49024bf2b9e03fab672f93 rOut:8a49e0936db92fdff267684bab4f023f mixColOut:9b0bc53e43213da414484db9b026d96c addrkOut:9958fdec8e2d65c80160cfc0e66432fa
counter:40 sOut:8a4f68df6d49024bf2b9e03fab672f93 rOut:8a49e0936db92fdff267684bab4f023f mixColOut:9b0bc53e43213da414484db9b026d96c addrkOut:9958fdec8e2d65c80160cfc0e66432fa
counter:40 sOut:8a4f68df6d49024bf2b9e03fab672f93 rOut:8a49e0936db92fdff267684bab4f023f mixColOut:9b0bc53e43213da414484db9b026d96c addrkOut:9958fdec8e2d65c80160cfc0e66432fa
counter:40 sOut:8a4f68df6d49024bf2b9e03fab672f93 rOut:8a49e0936db92fdff267684bab4f023f mixColOut:9b0bc53e43213da414484db9b026d96c addrkOut:9958fdec8e2d65c80160cfc0e66432fa
counter:40 sOut:8a4f68df6d49024bf2b9e03fab672f93 rOut:8a49e0936db92fdff267684bab4f023f mixColOut:9b0bc53e43213da414484db9b026d96c addrkOut:9958fdec8e2d65c80160cfc0e66432fa
counter:40 sOut:8a4f68df6d49024bf2b9e03fab672f93 rOut:8a49e0936db92fdff267684bab4f023f mixColOut:9b0bc53e43213da414484db9b026d96c addrkOut:9958fdec8e2d65c80160cfc0e66432fa
counter:40 sOut:8a4f68df6d49024bf2b9e03fab672f93 rOut:8a49e0936db92fdff267684bab4f023f mixColOut:9b0bc53e43213da414484db9b026d96c addrkOut:9958fdec8e2d65c80160cfc0e66432fa
