AES/AES.sim/sim_1/behav/xsim/simulate.log
Time resolution is 1 ps
key:xxxxxxxxxxxxxxxxxxxxxxxxxxxxxxxx cntr: x done:x in:xxxxxxxxxxxxxxxxxxxxxxxxxxxxxxxx addrkIn:xxxxxxxxxxxxxxxxxxxxxxxxxxxxxxxx addrkOut:xxxxxxxxxxxxxxxxxxxxxxxxxxxxxxxx sIn:xxxxxxxxxxxxxxxxxxxxxxxxxxxxxxxx sOut:xxxxxxxxxxxxxxxxxxxxxxxxxxxxxxxx rIn:xxxxxxxxxxxxxxxxxxxxxxxxxxxxxxxx rOut:xxxxxxxxxxxxxxxxxxxxxxxxxxxxxxxx mixColIn:xxxxxxxxxxxxxxxxxxxxxxxxxxxxxxxx mixColOut:xxxxxxxxxxxxxxxxxxxxxxxxxxxxxxxx
key:xxxxxxxxxxxxxxxxxxxxxxxxxxxxxxxx cntr: 0 done:x in:ffd8ffe000104a464946000101000001 addrkIn:xxxxxxxxxxxxxxxxxxxxxxxxxxxxxxxx addrkOut:xxxxxxxxxxxxxxxxxxxxxxxxxxxxxxxx sIn:xxxxxxxxxxxxxxxxxxxxxxxxxxxxxxxx sOut:xxxxxxxxxxxxxxxxxxxxxxxxxxxxxxxx rIn:xxxxxxxxxxxxxxxxxxxxxxxxxxxxxxxx rOut:xxxxxxxxxxxxxxxxxxxxxxxxxxxxxxxx mixColIn:xxxxxxxxxxxxxxxxxxxxxxxxxxxxxxxx mixColOut:xxxxxxxxxxxxxxxxxxxxxxxxxxxxxxxx
key:000102030405060708090a0b0c0d0e0f cntr: 1 done:0 in:00010000ffdb00430008060607060508 addrkIn:ffd8ffe000104a464946000101000001 addrkOut:ffd9fde304154c41414f0a0a0d0d0e0e sIn:xxxxxxxxxxxxxxxxxxxxxxxxxxxxxxxx sOut:xxxxxxxxxxxxxxxxxxxxxxxxxxxxxxxx rIn:xxxxxxxxxxxxxxxxxxxxxxxxxxxxxxxx rOut:xxxxxxxxxxxxxxxxxxxxxxxxxxxxxxxx mixColIn:xxxxxxxxxxxxxxxxxxxxxxxxxxxxxxxx mixColOut:xxxxxxxxxxxxxxxxxxxxxxxxxxxxxxxx
key:000102030405060708090a0b0c0d0e0f cntr: 2 done:0 in:0707070909080a0c140d0c0b0b0c1912 addrkIn:00010000ffdb00430008060607060508 addrkOut:00000203fbde064408010c0d0b0b0b07 sIn:ffd9fde304154c41414f0a0a0d0d0e0e sOut:16355411f259298383846767d7d7abab rIn:xxxxxxxxxxxxxxxxxxxxxxxxxxxxxxxx rOut:xxxxxxxxxxxxxxxxxxxxxxxxxxxxxxxx mixColIn:xxxxxxxxxxxxxxxxxxxxxxxxxxxxxxxx mixColOut:xxxxxxxxxxxxxxxxxxxxxxxxxxxxxxxx
key:000102030405060708090a0b0c0d0e0f cntr: 3 done:0 in:130f141d1a1f1e1d1a1c1c20242e2720 addrkIn:0707070909080a0c140d0c0b0b0c1912 addrkOut:0706050a0d0d0c0b1c0406000701171d sIn:00000203fbde064408010c0d0b0b0b07 sOut:6363777b0f1d6f1b307cfed72b2b2bc5 rIn:16355411f259298383846767d7d7abab rOut:165967abf284ab1183d75483d7352967 mixColIn:xxxxxxxxxxxxxxxxxxxxxxxxxxxxxxxx mixColOut:xxxxxxxxxxxxxxxxxxxxxxxxxxxxxxxx
key:000102030405060708090a0b0c0d0e0f cntr: 4 done:0 in:130f141d1a1f1e1d1a1c1c20242e2720 addrkIn:130f141d1a1f1e1d1a1c1c20242e2720 addrkOut:130e161e1e1a181a1215162b2823292f sIn:0706050a0d0d0c0b1c0406000701171d sOut:c56f6b67d7d7fe2b9cf26f63c57cf0a4 rIn:6363777b0f1d6f1b307cfed72b2b2bc5 rOut:631dfec50f7c2b7b302b771b2b636fd7 mixColIn:165967abf284ab1183d75483d7352967 mixColOut:0ba66749d2160800a8496200a4a119b0
key:d6aa74fdd2af72fadaa678f1d6ab76fe cntr: 5 done:0 in:130f141d1a1f1e1d1a1c1c20242e2720 addrkIn:0ba66749d2160800a8496200a4a119b0 addrkOut:dd0c13b400b97afa72ef1af1720a6f4e sIn:130e161e1e1a181a1215162b2823292f sOut:7dab477272a2ada2c95947f13426a515 rIn:c56f6b67d7d7fe2b9cf26f63c57cf0a4 rOut:c5d76fa4d7f2f0679c7c6b2bc56ffe63 mixColIn:631dfec50f7c2b7b302b771b2b636fd7 mixColOut:da85cdd7caf1a8b071e4d83a4b8bf4c4
key:d6aa74fdd2af72fadaa678f1d6ab76fe cntr: 6 done:0 in:130f141d1a1f1e1d1a1c1c20242e2720 addrkIn:da85cdd7caf1a8b071e4d83a4b8bf4c4 addrkOut:0c2fb92a185eda4aab42a0cb9d20823a sIn:dd0c13b400b97afa72ef1af1720a6f4e sOut:c1fe7d8d6356da2d40dfa2a14067a82f rIn:7dab477272a2ada2c95947f13426a515 rOut:7da247157259a572c92647a234abadf1 mixColIn:c5d76fa4d7f2f0679c7c6b2bc56ffe63 mixColOut:38653bbf2f4477aee7f24bfebd61e803
key:d6aa74fdd2af72fadaa678f1d6ab76fe cntr: 7 done:0 in:130f141d1a1f1e1d1a1c1c20242e2720 addrkIn:38653bbf2f4477aee7f24bfebd61e803 addrkOut:eecf4f42fdeb05543d54330f6bca9efd sIn:0c2fb92a185eda4aab42a0cb9d20823a sOut:fe1556e5ad5857d6622ce01f5eb71380 rIn:c1fe7d8d6356da2d40dfa2a14067a82f rOut:c156a22f63dfa88d40677d2d40fedaa1 mixColIn:7da247157259a572c92647a234abadf1 mixColOut:55fe6e48d846ec8e06ee9c7ed264d6a3
key:d6aa74fdd2af72fadaa678f1d6ab76fe cntr: 8 done:0 in:130f141d1a1f1e1d1a1c1c20242e2720 addrkIn:55fe6e48d846ec8e06ee9c7ed264d6a3 addrkOut:83541ab50ae99e74dc48e48f04cfa05d sIn:eecf4f42fdeb05543d54330f6bca9efd sOut:288a842c54e96b202720c3767f740b54 rIn:fe1556e5ad5857d6622ce01f5eb71380 rOut:fe58e080ad2c13e562b756d65e15571f mixColIn:c156a22f63dfa88d40677d2d40fedaa1 mixColOut:eebfb9f299a87bd37924aa80e273e9bd
key:b692cf0b643dbdf1be9bc5006830b3fe cntr: 9 done:0 in:130f141d1a1f1e1d1a1c1c20242e2720 addrkIn:eebfb9f299a87bd37924aa80e273e9bd addrkOut:582d76f9fd95c622c7bf6f808a435a43 sIn:83541ab50ae99e74dc48e48f04cfa05d sOut:ec20a2d5671e0b9286526973f28ae04c rIn:288a842c54e96b202720c3767f740b54 rOut:28e9c35454200b2c277484207f8a6b76 mixColIn:fe58e080ad2c13e562b756d65e15571f mixColOut:6ff5e6bac3259302863b18f0cb92c49e
key:b692cf0b643dbdf1be9bc5006830b3fe cntr:10 done:0 in:130f141d1a1f1e1d1a1c1c20242e2720 addrkIn:6ff5e6bac3259302863b18f0cb92c49e addrkOut:d96729b1a7182ef338a0ddf0a3a27760 sIn:582d76f9fd95c622c7bf6f808a435a43 sOut:6ad83899542ab493c608a8cd7e1abe1a rIn:ec20a2d5671e0b9286526973f28ae04c rOut:ec1e694c6752e0d5868aa292f2200b73 mixColIn:28e9c35454200b2c277484207f8a6b76 mixColOut:e7eba0faef25168f767820d966bbb98c
key:b692cf0b643dbdf1be9bc5006830b3fe cntr:11 done:0 in:130f141d1a1f1e1d1a1c1c20242e2720 addrkIn:e7eba0faef25168f767820d966bbb98c addrkOut:51796ff18b18ab7ec8e3e5d90e8b0a72 sIn:d96729b1a7182ef338a0ddf0a3a27760 sOut:3585a5c85cad310d07e0c18c0a3af5d0 rIn:6ad83899542ab493c608a8cd7e1abe1a rOut:6a2aa81a5408be99c61a38937ed8b4cd mixColIn:ec1e694c6752e0d5868aa292f2200b73 mixColOut:c427f4c00d2d8aaaa2e6fe86e7dc51c0
key:b692cf0b643dbdf1be9bc5006830b3fe cntr:12 done:0 in:130f141d1a1f1e1d1a1c1c20242e2720 addrkIn:c427f4c00d2d8aaaa2e6fe86e7dc51c0 addrkOut:72b53bcb6910375b1c7d3b868fece23e sIn:51796ff18b18ab7ec8e3e5d90e8b0a72 sOut:d1b6a8a13dad62f3e811d935ab3d6740 rIn:3585a5c85cad310d07e0c18c0a3af5d0 rOut:35adc1d05ce0f5c8073aa50d0a85318c mixColIn:6a2aa81a5408be99c61a38937ed8b4cd mixColOut:18c7250897048b631229024ef6df996f
key:b6ff744ed2c2c9bf6c590cbf0469bf41 cntr:13 done:0 in:130f141d1a1f1e1d1a1c1c20242e2720 addrkIn:18c7250897048b631229024ef6df996f addrkOut:ae38514645c642dc7e700ef1f2b6262e sIn:72b53bcb6910375b1c7d3b868fece23e sOut:40d5e21ff9ca9a399cffe24473ce98b2 rIn:d1b6a8a13dad62f3e811d935ab3d6740 rOut:d1add9403d1167a1e83da8f3abb66235 mixColIn:35adc1d05ce0f5c8073aa50d0a85318c mixColOut:97fc6a88be4b0e7ae88a7b8c3dc462a9
key:b6ff744ed2c2c9bf6c590cbf0469bf41 cntr:14 done:0 in:130f141d1a1f1e1d1a1c1c20242e2720 addrkIn:97fc6a88be4b0e7ae88a7b8c3dc462a9 addrkOut:21031ec66c89c7c584d3773339addde8 sIn:ae38514645c642dc7e700ef1f2b6262e sOut:e407d15a6eb42c86f351aba1894ef731 rIn:40d5e21ff9ca9a399cffe24473ce98b2 rOut:40cae2b2f9ff981f9ccee23973d59a44 mixColIn:d1add9403d1167a1e83da8f3abb66235 mixColOut:cca0159c8f171a68d782904bdb4f8658
key:b6ff744ed2c2c9bf6c590cbf0469bf41 cntr:15 done:0 in:130f141d1a1f1e1d1a1c1c20242e2720 addrkIn:cca0159c8f171a68d782904bdb4f8658 addrkOut:7a5f61d25dd5d3d7bbdb9cf4df263919 sIn:21031ec66c89c7c584d3773339addde8 sOut:fd7b72b450a7c6a65f66f5c31295c19b rIn:e407d15a6eb42c86f351aba1894ef731 rOut:e4b4ab316e51f75af34ed18689072ca1 mixColIn:40cae2b2f9ff981f9ccee23973d59a44 mixColOut:9540989774b00c49b11fc6e15c334552
key:b6ff744ed2c2c9bf6c590cbf0469bf41 cntr:16 done:0 in:130f141d1a1f1e1d1a1c1c20242e2720 addrkIn:9540989774b00c49b11fc6e15c334552 addrkOut:23bfecd9a672c5f6dd46ca5e585afa13 sIn:7a5f61d25dd5d3d7bbdb9cf4df263919 sOut:dacfefb54c03660eeab9debf9ef712d4 rIn:fd7b72b450a7c6a65f66f5c31295c19b rOut:fda7f59b5066c1b45f9572a6127bc6c3 mixColIn:e4b4ab316e51f75af34ed18689072ca1 mixColOut:8e404e4a829424a0788195868d522ef2
key:47f7f7bc95353e03f96c32bcfd058dfd cntr:17 done:0 in:130f141d1a1f1e1d1a1c1c20242e2720 addrkIn:8e404e4a829424a0788195868d522ef2 addrkOut:c9b7b9f617a11aa381eda73a7057a30f sIn:23bfecd9a672c5f6dd46ca5e585afa13 sOut:2608ce352440a642c15a74586abe2d7d rIn:dacfefb54c03660eeab9debf9ef712d4 rOut:da03ded44cb912b5eaf7ef0e9ecf66bf mixColIn:fda7f59b5066c1b45f9572a6127bc6c3 mixColOut:7d371d637f706824ce5edf51ac76a016
key:47f7f7bc95353e03f96c32bcfd058dfd cntr:18 done:0 in:130f141d1a1f1e1d1a1c1c20242e2720 addrkIn:7d371d637f706824ce5edf51ac76a016 addrkOut:3ac0eadfea4556273732eded51732deb sIn:c9b7b9f617a11aa381eda73a7057a30f sOut:dda95642f032a20a0c555c80515b0a76 rIn:2608ce352440a642c15a74586abe2d7d rOut:2640747d245a2d35c1bece426a08a658 mixColIn:da03ded44cb912b5eaf7ef0e9ecf66bf mixColOut:a071191befa6150e2c3bca21b40e4775
key:47f7f7bc95353e03f96c32bcfd058dfd cntr:19 done:0 in:130f141d1a1f1e1d1a1c1c20242e2720 addrkIn:a071191befa6150e2c3bca21b40e4775 addrkOut:e786eea77a932b0dd557f89d490bca88 sIn:3ac0eadfea4556273732eded51732deb sOut:80ba879e876eb1cc9a235555d18fd8e9 rIn:dda95642f032a20a0c555c80515b0a76 rOut:dd325c76f0550a420c5b560a51a9a280 mixColIn:2640747d245a2d35c1bece426a08a658 mixColOut:854709a4bed27b71ccad3eac32d3dda0
key:47f7f7bc95353e03f96c32bcfd058dfd cntr:20 done:0 in:130f141d1a1f1e1d1a1c1c20242e2720 addrkIn:854709a4bed27b71ccad3eac32d3dda0 addrkOut:c2b0fe182be7457235c10c10cfd6505d sIn:e786eea77a932b0dd557f89d490bca88 sOut:9444285cdadcf1d7035b415e3b2b74c4 rIn:80ba879e876eb1cc9a235555d18fd8e9 rOut:806e55e98723d89e9a8f87ccd1bab155 mixColIn:dd325c76f0550a420c5b560a51a9a280 mixColOut:dd2bcdfe4c0677d0a94ae50d60653ce3
key:3caaa3e8a99f9deb50f3af57adf622aa cntr:21 done:0 in:130f141d1a1f1e1d1a1c1c20242e2720 addrkIn:dd2bcdfe4c0677d0a94ae50d60653ce3 addrkOut:e1816e16e599ea3bf9b94a5acd931e49 sIn:c2b0fe182be7457235c10c10cfd6505d sOut:25e7bbadf1946e409678feca8af6534c rIn:9444285cdadcf1d7035b415e3b2b74c4 rOut:94dc41c4da5b745c032b28d73b44f15e mixColIn:806e55e98723d89e9a8f87ccd1bab155 mixColOut:154a6469362cb64eeec14f3e8823edc9
key:3caaa3e8a99f9deb50f3af57adf622aa cntr:22 done:0 in:130f141d1a1f1e1d1a1c1c20242e2720 addrkIn:154a6469362cb64eeec14f3e8823edc9 addrkOut:29e0c7819fb32ba5be32e06925d5cf63 sIn:e1816e16e599ea3bf9b94a5acd931e49 sOut:f80c9f47d9ee87e29956d6bebddc723b rIn:25e7bbadf1946e409678feca8af6534c rOut:2594fe4cf17853ad96f6bb408ae76eca mixColIn:94dc41c4da5b745c032b28d73b44f15e mixColOut:c9309da96aac8de284fa1ab315e56444
key:3caaa3e8a99f9deb50f3af57adf622aa cntr:23 done:0 in:130f141d1a1f1e1d1a1c1c20242e2720 addrkIn:c9309da96aac8de284fa1ab315e56444 addrkOut:f59a3e41c3331009d409b5e4b81346ee sIn:29e0c7819fb32ba5be32e06925d5cf63 sOut:a5e1c60cdb6df106ae23e1f93f038afb rIn:f80c9f47d9ee87e29956d6bebddc723b rOut:f8eed63bd956724799dc9fe2bd0c87be mixColIn:2594fe4cf17853ad96f6bb408ae76eca mixColOut:5f43829d8f59c362cdf7cd6c9927f483
key:3caaa3e8a99f9deb50f3af57adf622aa cntr:24 done:0 in:130f141d1a1f1e1d1a1c1c20242e2720 addrkIn:5f43829d8f59c362cdf7cd6c9927f483 addrkOut:63e9217526c65e899d04623b34d1d629 sIn:f59a3e41c3331009d409b5e4b81346ee sOut:e6b8b2832ec3ca014801d5696c7d5a28 rIn:a5e1c60cdb6df106ae23e1f93f038afb rOut:a56de1fbdb238a0cae03c6063fe1f1f9 mixColIn:f8eed63bd956724799dc9fe2bd0c87be mixColOut:2f65ec5d66a4a2da2b625d2c4c897d30
key:5e390f7df7a69296a7553dc10aa31f6b cntr:25 done:0 in:130f141d1a1f1e1d1a1c1c20242e2720 addrkIn:2f65ec5d66a4a2da2b625d2c4c897d30 addrkOut:715ce3209102304c8c3760ed462a625b sIn:63e9217526c65e899d04623b34d1d629 sOut:fb1efd9df7b458a75ef2aae2183ef6a5 rIn:e6b8b2832ec3ca014801d5696c7d5a28 rOut:e6c3d5282e015a83487db2016cb8ca69 mixColIn:a56de1fbdb238a0cae03c6063fe1f1f9 mixColOut:fcbc07954e14e3c782ff30204e1737b8
key:5e390f7df7a69296a7553dc10aa31f6b cntr:26 done:0 in:130f141d1a1f1e1d1a1c1c20242e2720 addrkIn:fcbc07954e14e3c782ff30204e1737b8 addrkOut:a28508e8b9b2715125aa0de144b428d3 sIn:715ce3209102304c8c3760ed462a625b sOut:a34a11b781770429649ad0555ae5aa39 rIn:fb1efd9df7b458a75ef2aae2183ef6a5 rOut:fbb4aaa5f7f2f69d5e3efda7181e58e2 mixColIn:e6c3d5282e015a83487db2016cb8ca69 mixColOut:7437ec7786410534a47e4915a82be014
key:5e390f7df7a69296a7553dc10aa31f6b cntr:27 done:0 in:130f141d1a1f1e1d1a1c1c20242e2720 addrkIn:7437ec7786410534a47e4915a82be014 addrkOut:2a0ee30a71e797a2032b74d4a288ff7f sIn:a28508e8b9b2715125aa0de144b428d3 sOut:3a97309b5637a3d13facd7f81b8d3466 rIn:a34a11b781770429649ad0555ae5aa39 rOut:a377d039819aaab764e511295a4a0455 mixColIn:fbb4aaa5f7f2f69d5e3efda7181e58e2 mixColOut:25c8f45993944e27a4997374a82e8bb1
key:5e390f7df7a69296a7553dc10aa31f6b cntr:28 done:0 in:130f141d1a1f1e1d1a1c1c20242e2720 addrkIn:25c8f45993944e27a4997374a82e8bb1 addrkOut:7bf1fb246432dcb103cc4eb5a28d94da sIn:2a0ee30a71e797a2032b74d4a288ff7f sOut:e5ab1167a394883a7bf192483ac416d2 rIn:3a97309b5637a3d13facd7f81b8d3466 rOut:3a37d76656ac349b3f8d30d11b97a3f8 mixColIn:a377d039819aaab764e511295a4a0455 mixColOut:2d1f242bb1fc96ddc4afd80a3b97e70a
key:14f9701ae35fe28c440adf4d4ea9c026 cntr:29 done:0 in:130f141d1a1f1e1d1a1c1c20242e2720 addrkIn:2d1f242bb1fc96ddc4afd80a3b97e70a addrkOut:39e6543152a3745180a50747753e272c sIn:7bf1fb246432dcb103cc4eb5a28d94da sOut:21a10f36432386c87b4b2fd53a5d2257 rIn:e5ab1167a394883a7bf192483ac416d2 rOut:e59492d2a3f116677bc4113a3aab8848 mixColIn:3a37d76656ac349b3f8d30d11b97a3f8 mixColOut:9c501262ecd2244f13bfba45cf28c2f2
key:14f9701ae35fe28c440adf4d4ea9c026 cntr:30 done:0 in:130f141d1a1f1e1d1a1c1c20242e2720 addrkIn:9c501262ecd2244f13bfba45cf28c2f2 addrkOut:88a962780f8dc6c357b56508818102d4 sIn:39e6543152a3745180a50747753e272c sOut:128e20c7000a92d1cd06c5a09db2cc71 rIn:21a10f36432386c87b4b2fd53a5d2257 rOut:21232f57434b22367b5d0fc83aa186d5 mixColIn:e59492d2a3f116677bc4113a3aab8848 mixColOut:36a9238d2407d7d78ae1d32c52bc42fd
key:14f9701ae35fe28c440adf4d4ea9c026 cntr:31 done:0 in:130f141d1a1f1e1d1a1c1c20242e2720 addrkIn:36a9238d2407d7d78ae1d32c52bc42fd addrkOut:22505397c758355bceeb0c611c1582db sIn:88a962780f8dc6c357b56508818102d4 sOut:c4d3aabc765db42e5bd54d300c0c7748 rIn:128e20c7000a92d1cd06c5a09db2cc71 rOut:120ac5710006ccc7cdb220d19d8e92a0 mixColIn:21232f57434b22367b5d0fc83aa186d5 mixColOut:5f41a5c14f8516c0d6187b54df27e8d8
key:14f9701ae35fe28c440adf4d4ea9c026 cntr:32 done:0 in:130f141d1a1f1e1d1a1c1c20242e2720 addrkIn:5f41a5c14f8516c0d6187b54df27e8d8 addrkOut:4bb8d5dbacdaf44c9212a419918e28fe sIn:22505397c758355bceeb0c611c1582db sOut:9353ed88c66a96398be9feef9c5913b9 rIn:c4d3aabc765db42e5bd54d300c0c7748 rOut:c45d4d4876d577bc5b0caa2e0cd3b430 mixColIn:120ac5710006ccc7cdb220d19d8e92a0 mixColOut:8e231a1b0184d75fbd0357679a97d7fb
key:47438735a41c65b9e016baf4aebf7ad2 cntr:33 done:0 in:130f141d1a1f1e1d1a1c1c20242e2720 addrkIn:8e231a1b0184d75fbd0357679a97d7fb addrkOut:c9609d2ea598b2e65d15ed933428ad29 sIn:4bb8d5dbacdaf44c9212a419918e28fe sOut:b36c03b99157bf294fc949d4811934bb rIn:9353ed88c66a96398be9feef9c5913b9 rOut:936afeb9c6e913888b59ed399c5396ef mixColIn:c45d4d4876d577bc5b0caa2e0cd3b430 mixColOut:71e1dbd743e2925b26886a17f246fc13
key:47438735a41c65b9e016baf4aebf7ad2 cntr:34 done:0 in:130f141d1a1f1e1d1a1c1c20242e2720 addrkIn:71e1dbd743e2925b26886a17f246fc13 addrkOut:36a25ce2e7fef7e2c69ed0e35cf986c1 sIn:c9609d2ea598b2e65d15ed933428ad29 sOut:ddd05e310646378e4c5955dc183495a5 rIn:b36c03b99157bf294fc949d4811934bb rOut:b35749bb91c934b94f190329816cbfd4 mixColIn:936afeb9c6e913888b59ed399c5396ef mixColOut:c4e7ce532cb28aa0322c5840af74d2bf
key:47438735a41c65b9e016baf4aebf7ad2 cntr:35 done:0 in:130f141d1a1f1e1d1a1c1c20242e2720 addrkIn:c4e7ce532cb28aa0322c5840af74d2bf addrkOut:83a4496688aeef19d23ae2b401cba86d sIn:36a25ce2e7fef7e2c69ed0e35cf986c1 sOut:053a4a9894bb6898b40b70114a994478 rIn:ddd05e310646378e4c5955dc183495a5 rOut:dd4655a5065995314c345e8e18d037dc mixColIn:b35749bb91c934b94f190329816cbfd4 mixColOut:767da0bdf4fde03c9f512b99c657eff8
key:47438735a41c65b9e016baf4aebf7ad2 cntr:36 done:0 in:130f141d1a1f1e1d1a1c1c20242e2720 addrkIn:767da0bdf4fde03c9f512b99c657eff8 addrkOut:313e278850e185857f47916d68e8952a sIn:83a4496688aeef19d23ae2b401cba86d sOut:ec493b33c4e4dfd4b580988d7c1fc23c rIn:053a4a9894bb6898b40b70114a994478 rOut:05bb7078940b4498b4994a984a3a6811 mixColIn:dd4655a5065995314c345e8e18d037dc mixColOut:9b0bc53e43213da414484db9b026d96c
key:549932d1f08557681093ed9cbe2c974e cntr:37 done:0 in:130f141d1a1f1e1d1a1c1c20242e2720 addrkIn:9b0bc53e43213da414484db9b026d96c addrkOut:cf92f7efb3a46acc04dba0250e0a4e22 sIn:313e278850e185857f47916d68e8952a sOut:c7b2ccc453f89797d2a0813c459b2ae5 rIn:ec493b33c4e4dfd4b580988d7c1fc23c rOut:ece4983cc480c233b51f3bd47c49df8d mixColIn:05bb7078940b4498b4994a984a3a6811 mixColOut:d480d634f2d6a4c311db0a3fa39793ae
key:549932d1f08557681093ed9cbe2c974e cntr:38 done:0 in:130f141d1a1f1e1d1a1c1c20242e2720 addrkIn:d480d634f2d6a4c311db0a3fa39793ae addrkOut:8019e4e50253f3ab0148e7a31dbb04e0 sIn:cf92f7efb3a46acc04dba0250e0a4e22 sOut:8a4f68df6d49024bf2b9e03fab672f93 rIn:c7b2ccc453f89797d2a0813c459b2ae5 rOut:c7f881e553a02ac4d29bcc9745b2973c mixColIn:ece4983cc480c233b51f3bd47c49df8d mixColOut:50b0672bf9b18e73bf12bb5371191c13
key:549932d1f08557681093ed9cbe2c974e cntr:39 done:0 in:130f141d1a1f1e1d1a1c1c20242e2720 addrkIn:50b0672bf9b18e73bf12bb5371191c13 addrkOut:042955fa0934d91baf8156cfcf358b5d sIn:8019e4e50253f3ab0148e7a31dbb04e0 sOut:cdd469d977ed0d627c52940aa4eaf2e1 rIn:8a4f68df6d49024bf2b9e03fab672f93 rOut:8a49e0936db92fdff267684bab4f023f mixColIn:c7f881e553a02ac4d29bcc9745b2973c mixColOut:e25112fab3b2f0ec5227680feca48692
key:549932d1f08557681093ed9cbe2c974e cntr:40 done:0 in:130f141d1a1f1e1d1a1c1c20242e2720 addrkIn:e25112fab3b2f0ec5227680feca48692 addrkOut:b6c8202b4337a78442b48593528811dc sIn:042955fa0934d91baf8156cfcf358b5d sOut:f2a5fc2d011835af790cb18a8a963d4c rIn:cdd469d977ed0d627c52940aa4eaf2e1 rOut:cded94e17752f2d97cea6962a4d40d0a mixColIn:c7f881e553a02ac4d29bcc9745b2973c mixColOut:e25112fab3b2f0ec5227680feca48692
