AES/AES.sim/sim_1/behav/xsim/simulate.log
Time resolution is 1 ps
keyCounter:   8  round: 1 buff:x rem:0 in:xxxxxxxx rot: xxxxxxxx rin:0c0d0e0f sub:xxxxxxxx rconv: xxxxxxxx temp:0c0d0e0f w:000102030405060708090a0b0c0d0e0fxxxxxxxxxxxxxxxxxxxxxxxxxxxxxxxxxxxxxxxxxxxxxxxxxxxxxxxxxxxxxxxxxxxxxxxxxxxxxxxxxxxxxxxxxxxxxxxxxxxxxxxxxxxxxxxxxxxxxxxxxxxxxxxxxxxxxxxxxxxxxxxxxxxxxxxxxxxxxxxxxxxxxxxxxxxxxxxxxxxxxxxxxxxxxxxxxxxxxxxxxxxxxxxxxxxxxxxxxxxxxxxxxxxxxxxxxxxxxxxxxxxxxxxxxxxxxxxxxxxxxxxxxxxxxxxxxxxxxxxxxxxxxxxxxxxxxxxxxxxxxxxxxxxxxxxxxxxxxxxx
keyCounter:   9  round: 1 buff:x rem:1 in:xxxxxxxx rot: 0d0e0f0c rin:0c0d0e0f sub:xxxxxxxx rconv: xxxxxxxx temp:0c0d0e0f w:000102030405060708090a0b0c0d0e0fxxxxxxxxxxxxxxxxxxxxxxxxxxxxxxxxxxxxxxxxxxxxxxxxxxxxxxxxxxxxxxxxxxxxxxxxxxxxxxxxxxxxxxxxxxxxxxxxxxxxxxxxxxxxxxxxxxxxxxxxxxxxxxxxxxxxxxxxxxxxxxxxxxxxxxxxxxxxxxxxxxxxxxxxxxxxxxxxxxxxxxxxxxxxxxxxxxxxxxxxxxxxxxxxxxxxxxxxxxxxxxxxxxxxxxxxxxxxxxxxxxxxxxxxxxxxxxxxxxxxxxxxxxxxxxxxxxxxxxxxxxxxxxxxxxxxxxxxxxxxxxxxxxxxxxxxxxxxxxxx
keyCounter:  10  round: 1 buff:x rem:2 in:xxxxxxxx rot: 0d0e0f0c rin:0c0d0e0f sub:d7ab76fe rconv: 01000000 temp:0c0d0e0f w:000102030405060708090a0b0c0d0e0fxxxxxxxxxxxxxxxxxxxxxxxxxxxxxxxxxxxxxxxxxxxxxxxxxxxxxxxxxxxxxxxxxxxxxxxxxxxxxxxxxxxxxxxxxxxxxxxxxxxxxxxxxxxxxxxxxxxxxxxxxxxxxxxxxxxxxxxxxxxxxxxxxxxxxxxxxxxxxxxxxxxxxxxxxxxxxxxxxxxxxxxxxxxxxxxxxxxxxxxxxxxxxxxxxxxxxxxxxxxxxxxxxxxxxxxxxxxxxxxxxxxxxxxxxxxxxxxxxxxxxxxxxxxxxxxxxxxxxxxxxxxxxxxxxxxxxxxxxxxxxxxxxxxxxxxxxxxxxxxx
keyCounter:  11  round: 1 buff:x rem:3 in:00010203 rot: 0d0e0f0c rin:d6ab76fe sub:d7ab76fe rconv: 01000000 temp:d6ab76fe w:000102030405060708090a0b0c0d0e0fxxxxxxxxxxxxxxxxxxxxxxxxxxxxxxxxxxxxxxxxxxxxxxxxxxxxxxxxxxxxxxxxxxxxxxxxxxxxxxxxxxxxxxxxxxxxxxxxxxxxxxxxxxxxxxxxxxxxxxxxxxxxxxxxxxxxxxxxxxxxxxxxxxxxxxxxxxxxxxxxxxxxxxxxxxxxxxxxxxxxxxxxxxxxxxxxxxxxxxxxxxxxxxxxxxxxxxxxxxxxxxxxxxxxxxxxxxxxxxxxxxxxxxxxxxxxxxxxxxxxxxxxxxxxxxxxxxxxxxxxxxxxxxxxxxxxxxxxxxxxxxxxxxxxxxxxxxxxxxxx
keyCounter:  12  round: 1 buff:x rem:4 in:04050607 rot: 0d0e0f0c rin:d6aa74fd sub:d7ab76fe rconv: 01000000 temp:d6aa74fd w:000102030405060708090a0b0c0d0e0fxxxxxxxxxxxxxxxxxxxxxxxxxxxxxxxxxxxxxxxxxxxxxxxxxxxxxxxxxxxxxxxxxxxxxxxxxxxxxxxxxxxxxxxxxxxxxxxxxxxxxxxxxxxxxxxxxxxxxxxxxxxxxxxxxxxxxxxxxxxxxxxxxxxxxxxxxxxxxxxxxxxxxxxxxxxxxxxxxxxxxxxxxxxxxxxxxxxxxxxxxxxxxxxxxxxxxxxxxxxxxxxxxxxxxxxxxxxxxxxxxxxxxxxxxxxxxxxxxxxxxxxxxxxxxxxxxxxxxxxxxxxxxxxxxxxxxxxxxxxxxxxxxxxxxxxxxxxxxxxx
keyCounter:  13  round: 1 buff:x rem:5 in:08090a0b rot: 0d0e0f0c rin:d2af72fa sub:d7ab76fe rconv: 01000000 temp:d2af72fa w:000102030405060708090a0b0c0d0e0fd6aa74fdxxxxxxxxxxxxxxxxxxxxxxxxxxxxxxxxxxxxxxxxxxxxxxxxxxxxxxxxxxxxxxxxxxxxxxxxxxxxxxxxxxxxxxxxxxxxxxxxxxxxxxxxxxxxxxxxxxxxxxxxxxxxxxxxxxxxxxxxxxxxxxxxxxxxxxxxxxxxxxxxxxxxxxxxxxxxxxxxxxxxxxxxxxxxxxxxxxxxxxxxxxxxxxxxxxxxxxxxxxxxxxxxxxxxxxxxxxxxxxxxxxxxxxxxxxxxxxxxxxxxxxxxxxxxxxxxxxxxxxxxxxxxxxxxxxxxxxxxxxxxxxxxxxxxxxxx
keyCounter:  14  round: 1 buff:x rem:6 in:0c0d0e0f rot: 0d0e0f0c rin:daa678f1 sub:d7ab76fe rconv: 01000000 temp:daa678f1 w:000102030405060708090a0b0c0d0e0fd6aa74fdd2af72faxxxxxxxxxxxxxxxxxxxxxxxxxxxxxxxxxxxxxxxxxxxxxxxxxxxxxxxxxxxxxxxxxxxxxxxxxxxxxxxxxxxxxxxxxxxxxxxxxxxxxxxxxxxxxxxxxxxxxxxxxxxxxxxxxxxxxxxxxxxxxxxxxxxxxxxxxxxxxxxxxxxxxxxxxxxxxxxxxxxxxxxxxxxxxxxxxxxxxxxxxxxxxxxxxxxxxxxxxxxxxxxxxxxxxxxxxxxxxxxxxxxxxxxxxxxxxxxxxxxxxxxxxxxxxxxxxxxxxxxxxxxxxxxxxxxxxxxxxxxxxxxx
keyCounter:  15  round: 2 buff:x rem:0 in:04050607 rot: 0d0e0f0c rin:d6ab76fe sub:d7ab76fe rconv: 01000000 temp:d6ab76fe w:000102030405060708090a0b0c0d0e0fd6aa74fdd2af72fadaa678f1xxxxxxxxxxxxxxxxxxxxxxxxxxxxxxxxxxxxxxxxxxxxxxxxxxxxxxxxxxxxxxxxxxxxxxxxxxxxxxxxxxxxxxxxxxxxxxxxxxxxxxxxxxxxxxxxxxxxxxxxxxxxxxxxxxxxxxxxxxxxxxxxxxxxxxxxxxxxxxxxxxxxxxxxxxxxxxxxxxxxxxxxxxxxxxxxxxxxxxxxxxxxxxxxxxxxxxxxxxxxxxxxxxxxxxxxxxxxxxxxxxxxxxxxxxxxxxxxxxxxxxxxxxxxxxxxxxxxxxxxxxxxxxxxxxxxxxxx
keyCounter:  16  round: 2 buff:x rem:1 in:08090a0b rot: ab76fed6 rin:d6ab76fe sub:d7ab76fe rconv: 01000000 temp:d6ab76fe w:000102030405060708090a0b0c0d0e0fd6aa74fdd2af72fadaa678f1d6ab76fexxxxxxxxxxxxxxxxxxxxxxxxxxxxxxxxxxxxxxxxxxxxxxxxxxxxxxxxxxxxxxxxxxxxxxxxxxxxxxxxxxxxxxxxxxxxxxxxxxxxxxxxxxxxxxxxxxxxxxxxxxxxxxxxxxxxxxxxxxxxxxxxxxxxxxxxxxxxxxxxxxxxxxxxxxxxxxxxxxxxxxxxxxxxxxxxxxxxxxxxxxxxxxxxxxxxxxxxxxxxxxxxxxxxxxxxxxxxxxxxxxxxxxxxxxxxxxxxxxxxxxxxxxxxxxxxxxxxxxxxxxxxxxxx
keyCounter:  17  round: 2 buff:x rem:2 in:0c0d0e0f rot: ab76fed6 rin:d6ab76fe sub:6238bbf6 rconv: 02000000 temp:d6ab76fe w:000102030405060708090a0b0c0d0e0fd6aa74fdd2af72fadaa678f1d6ab76fexxxxxxxxxxxxxxxxxxxxxxxxxxxxxxxxxxxxxxxxxxxxxxxxxxxxxxxxxxxxxxxxxxxxxxxxxxxxxxxxxxxxxxxxxxxxxxxxxxxxxxxxxxxxxxxxxxxxxxxxxxxxxxxxxxxxxxxxxxxxxxxxxxxxxxxxxxxxxxxxxxxxxxxxxxxxxxxxxxxxxxxxxxxxxxxxxxxxxxxxxxxxxxxxxxxxxxxxxxxxxxxxxxxxxxxxxxxxxxxxxxxxxxxxxxxxxxxxxxxxxxxxxxxxxxxxxxxxxxxxxxxxxxxx
keyCounter:  18  round: 2 buff:x rem:3 in:d6aa74fd rot: ab76fed6 rin:6038bbf6 sub:6238bbf6 rconv: 02000000 temp:6038bbf6 w:000102030405060708090a0b0c0d0e0fd6aa74fdd2af72fadaa678f1d6ab76fexxxxxxxxxxxxxxxxxxxxxxxxxxxxxxxxxxxxxxxxxxxxxxxxxxxxxxxxxxxxxxxxxxxxxxxxxxxxxxxxxxxxxxxxxxxxxxxxxxxxxxxxxxxxxxxxxxxxxxxxxxxxxxxxxxxxxxxxxxxxxxxxxxxxxxxxxxxxxxxxxxxxxxxxxxxxxxxxxxxxxxxxxxxxxxxxxxxxxxxxxxxxxxxxxxxxxxxxxxxxxxxxxxxxxxxxxxxxxxxxxxxxxxxxxxxxxxxxxxxxxxxxxxxxxxxxxxxxxxxxxxxxxxxx
keyCounter:  19  round: 2 buff:x rem:4 in:d2af72fa rot: ab76fed6 rin:b692cf0b sub:6238bbf6 rconv: 02000000 temp:b692cf0b w:000102030405060708090a0b0c0d0e0fd6aa74fdd2af72fadaa678f1d6ab76fexxxxxxxxxxxxxxxxxxxxxxxxxxxxxxxxxxxxxxxxxxxxxxxxxxxxxxxxxxxxxxxxxxxxxxxxxxxxxxxxxxxxxxxxxxxxxxxxxxxxxxxxxxxxxxxxxxxxxxxxxxxxxxxxxxxxxxxxxxxxxxxxxxxxxxxxxxxxxxxxxxxxxxxxxxxxxxxxxxxxxxxxxxxxxxxxxxxxxxxxxxxxxxxxxxxxxxxxxxxxxxxxxxxxxxxxxxxxxxxxxxxxxxxxxxxxxxxxxxxxxxxxxxxxxxxxxxxxxxxxxxxxxxxx
keyCounter:  20  round: 2 buff:x rem:5 in:daa678f1 rot: ab76fed6 rin:643dbdf1 sub:6238bbf6 rconv: 02000000 temp:643dbdf1 w:000102030405060708090a0b0c0d0e0fd6aa74fdd2af72fadaa678f1d6ab76feb692cf0bxxxxxxxxxxxxxxxxxxxxxxxxxxxxxxxxxxxxxxxxxxxxxxxxxxxxxxxxxxxxxxxxxxxxxxxxxxxxxxxxxxxxxxxxxxxxxxxxxxxxxxxxxxxxxxxxxxxxxxxxxxxxxxxxxxxxxxxxxxxxxxxxxxxxxxxxxxxxxxxxxxxxxxxxxxxxxxxxxxxxxxxxxxxxxxxxxxxxxxxxxxxxxxxxxxxxxxxxxxxxxxxxxxxxxxxxxxxxxxxxxxxxxxxxxxxxxxxxxxxxxxxxxxxxxxxxxxxxxxxx
keyCounter:  21  round: 2 buff:x rem:6 in:d6ab76fe rot: ab76fed6 rin:be9bc500 sub:6238bbf6 rconv: 02000000 temp:be9bc500 w:000102030405060708090a0b0c0d0e0fd6aa74fdd2af72fadaa678f1d6ab76feb692cf0b643dbdf1xxxxxxxxxxxxxxxxxxxxxxxxxxxxxxxxxxxxxxxxxxxxxxxxxxxxxxxxxxxxxxxxxxxxxxxxxxxxxxxxxxxxxxxxxxxxxxxxxxxxxxxxxxxxxxxxxxxxxxxxxxxxxxxxxxxxxxxxxxxxxxxxxxxxxxxxxxxxxxxxxxxxxxxxxxxxxxxxxxxxxxxxxxxxxxxxxxxxxxxxxxxxxxxxxxxxxxxxxxxxxxxxxxxxxxxxxxxxxxxxxxxxxxxxxxxxxxxxxxxxxxxxxxxxxxxx
keyCounter:  22  round: 3 buff:x rem:0 in:d2af72fa rot: ab76fed6 rin:6830b3fe sub:6238bbf6 rconv: 02000000 temp:6830b3fe w:000102030405060708090a0b0c0d0e0fd6aa74fdd2af72fadaa678f1d6ab76feb692cf0b643dbdf1be9bc500xxxxxxxxxxxxxxxxxxxxxxxxxxxxxxxxxxxxxxxxxxxxxxxxxxxxxxxxxxxxxxxxxxxxxxxxxxxxxxxxxxxxxxxxxxxxxxxxxxxxxxxxxxxxxxxxxxxxxxxxxxxxxxxxxxxxxxxxxxxxxxxxxxxxxxxxxxxxxxxxxxxxxxxxxxxxxxxxxxxxxxxxxxxxxxxxxxxxxxxxxxxxxxxxxxxxxxxxxxxxxxxxxxxxxxxxxxxxxxxxxxxxxxxxxxxxxxxxxxxxxxxx
keyCounter:  23  round: 3 buff:x rem:1 in:daa678f1 rot: 30b3fe68 rin:6830b3fe sub:6238bbf6 rconv: 02000000 temp:6830b3fe w:000102030405060708090a0b0c0d0e0fd6aa74fdd2af72fadaa678f1d6ab76feb692cf0b643dbdf1be9bc5006830b3fexxxxxxxxxxxxxxxxxxxxxxxxxxxxxxxxxxxxxxxxxxxxxxxxxxxxxxxxxxxxxxxxxxxxxxxxxxxxxxxxxxxxxxxxxxxxxxxxxxxxxxxxxxxxxxxxxxxxxxxxxxxxxxxxxxxxxxxxxxxxxxxxxxxxxxxxxxxxxxxxxxxxxxxxxxxxxxxxxxxxxxxxxxxxxxxxxxxxxxxxxxxxxxxxxxxxxxxxxxxxxxxxxxxxxxxxxxxxxxxxxxxxxxxxxxxxxxxx
keyCounter:  24  round: 3 buff:x rem:2 in:d6ab76fe rot: 30b3fe68 rin:6830b3fe sub:046dbb45 rconv: 04000000 temp:6830b3fe w:000102030405060708090a0b0c0d0e0fd6aa74fdd2af72fadaa678f1d6ab76feb692cf0b643dbdf1be9bc5006830b3fexxxxxxxxxxxxxxxxxxxxxxxxxxxxxxxxxxxxxxxxxxxxxxxxxxxxxxxxxxxxxxxxxxxxxxxxxxxxxxxxxxxxxxxxxxxxxxxxxxxxxxxxxxxxxxxxxxxxxxxxxxxxxxxxxxxxxxxxxxxxxxxxxxxxxxxxxxxxxxxxxxxxxxxxxxxxxxxxxxxxxxxxxxxxxxxxxxxxxxxxxxxxxxxxxxxxxxxxxxxxxxxxxxxxxxxxxxxxxxxxxxxxxxxxxxxxxxxx
keyCounter:  25  round: 3 buff:x rem:3 in:b692cf0b rot: 30b3fe68 rin:006dbb45 sub:046dbb45 rconv: 04000000 temp:006dbb45 w:000102030405060708090a0b0c0d0e0fd6aa74fdd2af72fadaa678f1d6ab76feb692cf0b643dbdf1be9bc5006830b3fexxxxxxxxxxxxxxxxxxxxxxxxxxxxxxxxxxxxxxxxxxxxxxxxxxxxxxxxxxxxxxxxxxxxxxxxxxxxxxxxxxxxxxxxxxxxxxxxxxxxxxxxxxxxxxxxxxxxxxxxxxxxxxxxxxxxxxxxxxxxxxxxxxxxxxxxxxxxxxxxxxxxxxxxxxxxxxxxxxxxxxxxxxxxxxxxxxxxxxxxxxxxxxxxxxxxxxxxxxxxxxxxxxxxxxxxxxxxxxxxxxxxxxxxxxxxxxxx
keyCounter:  26  round: 3 buff:x rem:4 in:643dbdf1 rot: 30b3fe68 rin:b6ff744e sub:046dbb45 rconv: 04000000 temp:b6ff744e w:000102030405060708090a0b0c0d0e0fd6aa74fdd2af72fadaa678f1d6ab76feb692cf0b643dbdf1be9bc5006830b3fexxxxxxxxxxxxxxxxxxxxxxxxxxxxxxxxxxxxxxxxxxxxxxxxxxxxxxxxxxxxxxxxxxxxxxxxxxxxxxxxxxxxxxxxxxxxxxxxxxxxxxxxxxxxxxxxxxxxxxxxxxxxxxxxxxxxxxxxxxxxxxxxxxxxxxxxxxxxxxxxxxxxxxxxxxxxxxxxxxxxxxxxxxxxxxxxxxxxxxxxxxxxxxxxxxxxxxxxxxxxxxxxxxxxxxxxxxxxxxxxxxxxxxxxxxxxxxxx
keyCounter:  27  round: 3 buff:x rem:5 in:be9bc500 rot: 30b3fe68 rin:d2c2c9bf sub:046dbb45 rconv: 04000000 temp:d2c2c9bf w:000102030405060708090a0b0c0d0e0fd6aa74fdd2af72fadaa678f1d6ab76feb692cf0b643dbdf1be9bc5006830b3feb6ff744exxxxxxxxxxxxxxxxxxxxxxxxxxxxxxxxxxxxxxxxxxxxxxxxxxxxxxxxxxxxxxxxxxxxxxxxxxxxxxxxxxxxxxxxxxxxxxxxxxxxxxxxxxxxxxxxxxxxxxxxxxxxxxxxxxxxxxxxxxxxxxxxxxxxxxxxxxxxxxxxxxxxxxxxxxxxxxxxxxxxxxxxxxxxxxxxxxxxxxxxxxxxxxxxxxxxxxxxxxxxxxxxxxxxxxxxxxxxxxxxxxxxxxxx
keyCounter:  28  round: 3 buff:x rem:6 in:6830b3fe rot: 30b3fe68 rin:6c590cbf sub:046dbb45 rconv: 04000000 temp:6c590cbf w:000102030405060708090a0b0c0d0e0fd6aa74fdd2af72fadaa678f1d6ab76feb692cf0b643dbdf1be9bc5006830b3feb6ff744ed2c2c9bfxxxxxxxxxxxxxxxxxxxxxxxxxxxxxxxxxxxxxxxxxxxxxxxxxxxxxxxxxxxxxxxxxxxxxxxxxxxxxxxxxxxxxxxxxxxxxxxxxxxxxxxxxxxxxxxxxxxxxxxxxxxxxxxxxxxxxxxxxxxxxxxxxxxxxxxxxxxxxxxxxxxxxxxxxxxxxxxxxxxxxxxxxxxxxxxxxxxxxxxxxxxxxxxxxxxxxxxxxxxxxxxxxxxxxxxxxxxxxxxx
keyCounter:  29  round: 4 buff:x rem:0 in:643dbdf1 rot: 30b3fe68 rin:0469bf41 sub:046dbb45 rconv: 04000000 temp:0469bf41 w:000102030405060708090a0b0c0d0e0fd6aa74fdd2af72fadaa678f1d6ab76feb692cf0b643dbdf1be9bc5006830b3feb6ff744ed2c2c9bf6c590cbfxxxxxxxxxxxxxxxxxxxxxxxxxxxxxxxxxxxxxxxxxxxxxxxxxxxxxxxxxxxxxxxxxxxxxxxxxxxxxxxxxxxxxxxxxxxxxxxxxxxxxxxxxxxxxxxxxxxxxxxxxxxxxxxxxxxxxxxxxxxxxxxxxxxxxxxxxxxxxxxxxxxxxxxxxxxxxxxxxxxxxxxxxxxxxxxxxxxxxxxxxxxxxxxxxxxxxxxxxxxxxxxxxxxxxxxx
keyCounter:  30  round: 4 buff:x rem:1 in:be9bc500 rot: 69bf4104 rin:0469bf41 sub:046dbb45 rconv: 04000000 temp:0469bf41 w:000102030405060708090a0b0c0d0e0fd6aa74fdd2af72fadaa678f1d6ab76feb692cf0b643dbdf1be9bc5006830b3feb6ff744ed2c2c9bf6c590cbf0469bf41xxxxxxxxxxxxxxxxxxxxxxxxxxxxxxxxxxxxxxxxxxxxxxxxxxxxxxxxxxxxxxxxxxxxxxxxxxxxxxxxxxxxxxxxxxxxxxxxxxxxxxxxxxxxxxxxxxxxxxxxxxxxxxxxxxxxxxxxxxxxxxxxxxxxxxxxxxxxxxxxxxxxxxxxxxxxxxxxxxxxxxxxxxxxxxxxxxxxxxxxxxxxxxxxxxxxxxxxxxxxxxxx
keyCounter:  31  round: 4 buff:x rem:2 in:6830b3fe rot: 69bf4104 rin:0469bf41 sub:f90883f2 rconv: 08000000 temp:0469bf41 w:000102030405060708090a0b0c0d0e0fd6aa74fdd2af72fadaa678f1d6ab76feb692cf0b643dbdf1be9bc5006830b3feb6ff744ed2c2c9bf6c590cbf0469bf41xxxxxxxxxxxxxxxxxxxxxxxxxxxxxxxxxxxxxxxxxxxxxxxxxxxxxxxxxxxxxxxxxxxxxxxxxxxxxxxxxxxxxxxxxxxxxxxxxxxxxxxxxxxxxxxxxxxxxxxxxxxxxxxxxxxxxxxxxxxxxxxxxxxxxxxxxxxxxxxxxxxxxxxxxxxxxxxxxxxxxxxxxxxxxxxxxxxxxxxxxxxxxxxxxxxxxxxxxxxxxxxx
keyCounter:  32  round: 4 buff:x rem:3 in:b6ff744e rot: 69bf4104 rin:f10883f2 sub:f90883f2 rconv: 08000000 temp:f10883f2 w:000102030405060708090a0b0c0d0e0fd6aa74fdd2af72fadaa678f1d6ab76feb692cf0b643dbdf1be9bc5006830b3feb6ff744ed2c2c9bf6c590cbf0469bf41xxxxxxxxxxxxxxxxxxxxxxxxxxxxxxxxxxxxxxxxxxxxxxxxxxxxxxxxxxxxxxxxxxxxxxxxxxxxxxxxxxxxxxxxxxxxxxxxxxxxxxxxxxxxxxxxxxxxxxxxxxxxxxxxxxxxxxxxxxxxxxxxxxxxxxxxxxxxxxxxxxxxxxxxxxxxxxxxxxxxxxxxxxxxxxxxxxxxxxxxxxxxxxxxxxxxxxxxxxxxxxxx
keyCounter:  33  round: 4 buff:x rem:4 in:d2c2c9bf rot: 69bf4104 rin:47f7f7bc sub:f90883f2 rconv: 08000000 temp:47f7f7bc w:000102030405060708090a0b0c0d0e0fd6aa74fdd2af72fadaa678f1d6ab76feb692cf0b643dbdf1be9bc5006830b3feb6ff744ed2c2c9bf6c590cbf0469bf41xxxxxxxxxxxxxxxxxxxxxxxxxxxxxxxxxxxxxxxxxxxxxxxxxxxxxxxxxxxxxxxxxxxxxxxxxxxxxxxxxxxxxxxxxxxxxxxxxxxxxxxxxxxxxxxxxxxxxxxxxxxxxxxxxxxxxxxxxxxxxxxxxxxxxxxxxxxxxxxxxxxxxxxxxxxxxxxxxxxxxxxxxxxxxxxxxxxxxxxxxxxxxxxxxxxxxxxxxxxxxxxx
keyCounter:  34  round: 4 buff:x rem:5 in:6c590cbf rot: 69bf4104 rin:95353e03 sub:f90883f2 rconv: 08000000 temp:95353e03 w:000102030405060708090a0b0c0d0e0fd6aa74fdd2af72fadaa678f1d6ab76feb692cf0b643dbdf1be9bc5006830b3feb6ff744ed2c2c9bf6c590cbf0469bf4147f7f7bcxxxxxxxxxxxxxxxxxxxxxxxxxxxxxxxxxxxxxxxxxxxxxxxxxxxxxxxxxxxxxxxxxxxxxxxxxxxxxxxxxxxxxxxxxxxxxxxxxxxxxxxxxxxxxxxxxxxxxxxxxxxxxxxxxxxxxxxxxxxxxxxxxxxxxxxxxxxxxxxxxxxxxxxxxxxxxxxxxxxxxxxxxxxxxxxxxxxxxxxxxxxxxxxxxxxxxxxx
keyCounter:  35  round: 4 buff:x rem:6 in:0469bf41 rot: 69bf4104 rin:f96c32bc sub:f90883f2 rconv: 08000000 temp:f96c32bc w:000102030405060708090a0b0c0d0e0fd6aa74fdd2af72fadaa678f1d6ab76feb692cf0b643dbdf1be9bc5006830b3feb6ff744ed2c2c9bf6c590cbf0469bf4147f7f7bc95353e03xxxxxxxxxxxxxxxxxxxxxxxxxxxxxxxxxxxxxxxxxxxxxxxxxxxxxxxxxxxxxxxxxxxxxxxxxxxxxxxxxxxxxxxxxxxxxxxxxxxxxxxxxxxxxxxxxxxxxxxxxxxxxxxxxxxxxxxxxxxxxxxxxxxxxxxxxxxxxxxxxxxxxxxxxxxxxxxxxxxxxxxxxxxxxxxxxxxxxxxxxxxxxxxx
keyCounter:  36  round: 5 buff:x rem:0 in:d2c2c9bf rot: 69bf4104 rin:fd058dfd sub:f90883f2 rconv: 08000000 temp:fd058dfd w:000102030405060708090a0b0c0d0e0fd6aa74fdd2af72fadaa678f1d6ab76feb692cf0b643dbdf1be9bc5006830b3feb6ff744ed2c2c9bf6c590cbf0469bf4147f7f7bc95353e03f96c32bcxxxxxxxxxxxxxxxxxxxxxxxxxxxxxxxxxxxxxxxxxxxxxxxxxxxxxxxxxxxxxxxxxxxxxxxxxxxxxxxxxxxxxxxxxxxxxxxxxxxxxxxxxxxxxxxxxxxxxxxxxxxxxxxxxxxxxxxxxxxxxxxxxxxxxxxxxxxxxxxxxxxxxxxxxxxxxxxxxxxxxxxxxxxxxxxxxxxxxxxx
keyCounter:  37  round: 5 buff:x rem:1 in:6c590cbf rot: 058dfdfd rin:fd058dfd sub:f90883f2 rconv: 08000000 temp:fd058dfd w:000102030405060708090a0b0c0d0e0fd6aa74fdd2af72fadaa678f1d6ab76feb692cf0b643dbdf1be9bc5006830b3feb6ff744ed2c2c9bf6c590cbf0469bf4147f7f7bc95353e03f96c32bcfd058dfdxxxxxxxxxxxxxxxxxxxxxxxxxxxxxxxxxxxxxxxxxxxxxxxxxxxxxxxxxxxxxxxxxxxxxxxxxxxxxxxxxxxxxxxxxxxxxxxxxxxxxxxxxxxxxxxxxxxxxxxxxxxxxxxxxxxxxxxxxxxxxxxxxxxxxxxxxxxxxxxxxxxxxxxxxxxxxxxxxxxxxxxxxxxxxxxx
keyCounter:  38  round: 5 buff:x rem:2 in:0469bf41 rot: 058dfdfd rin:fd058dfd sub:6b5d5454 rconv: 10000000 temp:fd058dfd w:000102030405060708090a0b0c0d0e0fd6aa74fdd2af72fadaa678f1d6ab76feb692cf0b643dbdf1be9bc5006830b3feb6ff744ed2c2c9bf6c590cbf0469bf4147f7f7bc95353e03f96c32bcfd058dfdxxxxxxxxxxxxxxxxxxxxxxxxxxxxxxxxxxxxxxxxxxxxxxxxxxxxxxxxxxxxxxxxxxxxxxxxxxxxxxxxxxxxxxxxxxxxxxxxxxxxxxxxxxxxxxxxxxxxxxxxxxxxxxxxxxxxxxxxxxxxxxxxxxxxxxxxxxxxxxxxxxxxxxxxxxxxxxxxxxxxxxxxxxxxxxxx
keyCounter:  39  round: 5 buff:x rem:3 in:47f7f7bc rot: 058dfdfd rin:7b5d5454 sub:6b5d5454 rconv: 10000000 temp:7b5d5454 w:000102030405060708090a0b0c0d0e0fd6aa74fdd2af72fadaa678f1d6ab76feb692cf0b643dbdf1be9bc5006830b3feb6ff744ed2c2c9bf6c590cbf0469bf4147f7f7bc95353e03f96c32bcfd058dfdxxxxxxxxxxxxxxxxxxxxxxxxxxxxxxxxxxxxxxxxxxxxxxxxxxxxxxxxxxxxxxxxxxxxxxxxxxxxxxxxxxxxxxxxxxxxxxxxxxxxxxxxxxxxxxxxxxxxxxxxxxxxxxxxxxxxxxxxxxxxxxxxxxxxxxxxxxxxxxxxxxxxxxxxxxxxxxxxxxxxxxxxxxxxxxxx
keyCounter:  40  round: 5 buff:x rem:4 in:95353e03 rot: 058dfdfd rin:3caaa3e8 sub:6b5d5454 rconv: 10000000 temp:3caaa3e8 w:000102030405060708090a0b0c0d0e0fd6aa74fdd2af72fadaa678f1d6ab76feb692cf0b643dbdf1be9bc5006830b3feb6ff744ed2c2c9bf6c590cbf0469bf4147f7f7bc95353e03f96c32bcfd058dfdxxxxxxxxxxxxxxxxxxxxxxxxxxxxxxxxxxxxxxxxxxxxxxxxxxxxxxxxxxxxxxxxxxxxxxxxxxxxxxxxxxxxxxxxxxxxxxxxxxxxxxxxxxxxxxxxxxxxxxxxxxxxxxxxxxxxxxxxxxxxxxxxxxxxxxxxxxxxxxxxxxxxxxxxxxxxxxxxxxxxxxxxxxxxxxxx
keyCounter:  41  round: 5 buff:x rem:5 in:f96c32bc rot: 058dfdfd rin:a99f9deb sub:6b5d5454 rconv: 10000000 temp:a99f9deb w:000102030405060708090a0b0c0d0e0fd6aa74fdd2af72fadaa678f1d6ab76feb692cf0b643dbdf1be9bc5006830b3feb6ff744ed2c2c9bf6c590cbf0469bf4147f7f7bc95353e03f96c32bcfd058dfd3caaa3e8xxxxxxxxxxxxxxxxxxxxxxxxxxxxxxxxxxxxxxxxxxxxxxxxxxxxxxxxxxxxxxxxxxxxxxxxxxxxxxxxxxxxxxxxxxxxxxxxxxxxxxxxxxxxxxxxxxxxxxxxxxxxxxxxxxxxxxxxxxxxxxxxxxxxxxxxxxxxxxxxxxxxxxxxxxxxxxxxxxxxxxxx
keyCounter:  42  round: 5 buff:x rem:6 in:fd058dfd rot: 058dfdfd rin:50f3af57 sub:6b5d5454 rconv: 10000000 temp:50f3af57 w:000102030405060708090a0b0c0d0e0fd6aa74fdd2af72fadaa678f1d6ab76feb692cf0b643dbdf1be9bc5006830b3feb6ff744ed2c2c9bf6c590cbf0469bf4147f7f7bc95353e03f96c32bcfd058dfd3caaa3e8a99f9debxxxxxxxxxxxxxxxxxxxxxxxxxxxxxxxxxxxxxxxxxxxxxxxxxxxxxxxxxxxxxxxxxxxxxxxxxxxxxxxxxxxxxxxxxxxxxxxxxxxxxxxxxxxxxxxxxxxxxxxxxxxxxxxxxxxxxxxxxxxxxxxxxxxxxxxxxxxxxxxxxxxxxxxxxxxxxxxx
keyCounter:  43  round: 6 buff:x rem:0 in:95353e03 rot: 058dfdfd rin:adf622aa sub:6b5d5454 rconv: 10000000 temp:adf622aa w:000102030405060708090a0b0c0d0e0fd6aa74fdd2af72fadaa678f1d6ab76feb692cf0b643dbdf1be9bc5006830b3feb6ff744ed2c2c9bf6c590cbf0469bf4147f7f7bc95353e03f96c32bcfd058dfd3caaa3e8a99f9deb50f3af57xxxxxxxxxxxxxxxxxxxxxxxxxxxxxxxxxxxxxxxxxxxxxxxxxxxxxxxxxxxxxxxxxxxxxxxxxxxxxxxxxxxxxxxxxxxxxxxxxxxxxxxxxxxxxxxxxxxxxxxxxxxxxxxxxxxxxxxxxxxxxxxxxxxxxxxxxxxxxxxxxxxxxxxx
keyCounter:  44  round: 6 buff:x rem:1 in:f96c32bc rot: f622aaad rin:adf622aa sub:6b5d5454 rconv: 10000000 temp:adf622aa w:000102030405060708090a0b0c0d0e0fd6aa74fdd2af72fadaa678f1d6ab76feb692cf0b643dbdf1be9bc5006830b3feb6ff744ed2c2c9bf6c590cbf0469bf4147f7f7bc95353e03f96c32bcfd058dfd3caaa3e8a99f9deb50f3af57adf622aaxxxxxxxxxxxxxxxxxxxxxxxxxxxxxxxxxxxxxxxxxxxxxxxxxxxxxxxxxxxxxxxxxxxxxxxxxxxxxxxxxxxxxxxxxxxxxxxxxxxxxxxxxxxxxxxxxxxxxxxxxxxxxxxxxxxxxxxxxxxxxxxxxxxxxxxxxxxxxxxx
